<svg xmlns="http://www.w3.org/2000/svg" xmlns:xlink="http://www.w3.org/1999/xlink" width="60" height="60" viewBox="0 0 60 60">
  <defs>
    <style>
      .a {
        mask: url(#a);
        filter: url(#e);
      }

      .b, .h, .i, .j, .l, .m, .r, .s, .t {
        mix-blend-mode: multiply;
      }

      .b {
        fill: url(#c);
      }

      .c {
        isolation: isolate;
      }

      .d, .f {
        fill: #eaa3bb;
        stroke: #eaa3bb;
      }

      .d, .e, .f, .g, .h, .k, .m, .n, .o, .q, .r, .s, .t, .u {
        stroke-miterlimit: 10;
      }

      .d, .e {
        stroke-width: 0.2px;
      }

      .e, .u {
        fill: #494949;
      }

      .e, .g, .h, .k, .m, .o, .q, .r, .u {
        stroke: #494949;
      }

      .f, .g, .h, .k, .m, .n, .o, .q, .r, .s, .t, .u {
        stroke-width: 0.4px;
      }

      .f, .u {
        fill-rule: evenodd;
      }

      .g, .h, .k, .m, .n, .o, .q, .r, .s, .t {
        fill: none;
      }

      .h, .s {
        opacity: 0.5;
      }

      .i, .q, .t {
        opacity: 0.6;
      }

      .k {
        opacity: 0.3;
        mix-blend-mode: screen;
      }

      .l, .o {
        opacity: 0.7;
      }

      .n, .s, .t {
        stroke: #4d4d4d;
      }

      .p {
        mask: url(#d);
      }

      .r {
        opacity: 0.4;
      }

      .v {
        filter: url(#b);
      }
    </style>
    <filter id="b" x="41.55" y="-8222" width="0.48" height="32766" filterUnits="userSpaceOnUse" color-interpolation-filters="sRGB">
      <feFlood flood-color="#fff" result="bg"/>
      <feBlend in="SourceGraphic" in2="bg"/>
    </filter>
    <mask id="a" x="41.55" y="-8222" width="0.48" height="32766" maskUnits="userSpaceOnUse">
      <g class="v"/>
    </mask>
    <radialGradient id="c" cx="94.9" cy="-59.87" r="0.39" gradientTransform="translate(-47.72 80.64) rotate(-4.88)" gradientUnits="userSpaceOnUse">
      <stop offset="0" stop-color="#fff"/>
      <stop offset="0.15" stop-color="#cdcdcd"/>
      <stop offset="0.5" stop-color="#4f4f4f"/>
      <stop offset="0.7"/>
    </radialGradient>
    <filter id="e" x="41.35" y="12.49" width="0.76" height="0.93" filterUnits="userSpaceOnUse" color-interpolation-filters="sRGB">
      <feFlood flood-color="#fff" result="bg"/>
      <feBlend in="SourceGraphic" in2="bg"/>
    </filter>
    <mask id="d" x="41.35" y="12.49" width="0.76" height="0.93" maskUnits="userSpaceOnUse">
      <g class="a">
        <path class="b" d="M42,12.74l-.05,0a.49.49,0,0,0-.14,0h-.09a.12.12,0,0,0-.08,0l0,0,0,0v0a.13.13,0,0,0,0,0l0,.05a.41.41,0,0,0,0,.11s0,0,0,.05l0,0a.08.08,0,0,0,0,0l0,0,.09,0H42"/>
      </g>
    </mask>
  </defs>
  <title>Безымянный-1</title>
  <g class="c">
    <g>
      <g>
        <path class="d" d="M2.91,7.82C3,7.68,3,7.54,3,7.4A2.7,2.7,0,0,1,5.25,5.48a2.45,2.45,0,0,1,1.69.31,2.13,2.13,0,0,1,.56.48l.08-.12a2.13,2.13,0,0,1,1.81-1h.23l.31,0,.35.1a2.46,2.46,0,0,1,1.57,1.48,2.62,2.62,0,0,1,.23,1.1.15.15,0,0,0,0,.07l0,.33v-.1a2.44,2.44,0,0,0-.18-1.25,2.44,2.44,0,0,0-2-1.64,2.2,2.2,0,0,0-1.72.42,1.25,1.25,0,0,0-.36.4L7.86,6a5.2,5.2,0,0,1,.44-.38,2.14,2.14,0,0,1,1.16-.33A2.47,2.47,0,0,1,11,5.71a2.41,2.41,0,0,1,.84,1.08A2.57,2.57,0,0,1,12,8.34c0,.09-.07.18-.1.27h0A3.37,3.37,0,0,0,12,8.27,2.16,2.16,0,0,0,11.82,7a3.48,3.48,0,0,0-.35-.66c-.07-.1-.16-.19-.24-.29h0v0a3.15,3.15,0,0,1,.61,1.14A2.28,2.28,0,0,1,11.67,9a5.1,5.1,0,0,1-.63.91c-.15.18-.31.35-.47.52l-.39.45a.61.61,0,0,1,.07-.14c.07-.09.15-.17.23-.26l.27-.32a1.7,1.7,0,0,0,.15-.22.33.33,0,0,0,0-.1c.14-.2.29-.41.43-.63a2,2,0,0,0,.32-1.57,4.67,4.67,0,0,0-.14-.5l0,0a.88.88,0,0,1,0,.15,2,2,0,0,1,0,1.33,3.73,3.73,0,0,1-.55,1c-.3.41-.62.81-.93,1.21h0a5.85,5.85,0,0,1,.34-.48,10.59,10.59,0,0,0,.88-1.23,2.18,2.18,0,0,0,.34-1,2.22,2.22,0,0,0-.33-1.33,1.94,1.94,0,0,0-1.91-1A1.53,1.53,0,0,0,8,6.7a5.22,5.22,0,0,0-.18.56c0,.11-.06.23-.1.36l0-.09C7.47,7.25,7.3,7,7.1,6.69A1.73,1.73,0,0,0,5.94,6l.24.07.24.09h0A1.83,1.83,0,0,0,5.55,6,2.08,2.08,0,0,0,3.72,7.14,2.79,2.79,0,0,0,3.39,8.5a2,2,0,0,0,.33,1.17A4.57,4.57,0,0,0,5.18,11c.65.39,1.34.73,2,1.1a10.84,10.84,0,0,1,1.75,1.08,4.36,4.36,0,0,1,1,1l.06.12a3.33,3.33,0,0,0-.64-.66,9,9,0,0,0-1.74-1c-.76-.35-1.51-.72-2.26-1.09A6.41,6.41,0,0,1,3.8,10.44a2.67,2.67,0,0,1-.91-1.91c0-.1,0-.2,0-.31S2.9,8,2.91,7.82Zm8.91,0a2.13,2.13,0,0,0-.35-1.14.36.36,0,0,1,0,.07A2.38,2.38,0,0,1,11.79,8a2,2,0,0,1-.22.89c-.08.17-.17.34-.26.51A2.48,2.48,0,0,0,11.82,7.87ZM10.53,6a1.92,1.92,0,0,0-2.12.11A2,2,0,0,1,10.53,6Z"/>
        <path class="d" d="M11.88,8.61c0,.11-.07.21-.11.32h0l.13-.31Z"/>
      </g>
      <g>
        <path class="d" d="M3.43,18.79a2.17,2.17,0,0,1,.07-.24,1.53,1.53,0,0,1,1.28-1.11,1.38,1.38,0,0,1,1,.18,1.18,1.18,0,0,1,.32.27l0-.07a1.25,1.25,0,0,1,1-.58h.13l.18,0,.2.06a1.42,1.42,0,0,1,.91.85,1.53,1.53,0,0,1,.13.64v0l0,.18V19a1.36,1.36,0,0,0-.1-.72,1.41,1.41,0,0,0-1.15-.95,1.26,1.26,0,0,0-1,.25.63.63,0,0,0-.21.22l0,0c.09-.07.16-.16.25-.22a1.3,1.3,0,0,1,.67-.19,1.4,1.4,0,0,1,.86.25,1.56,1.56,0,0,1,.59,1.5c0,.06,0,.11-.05.16h0c0-.06,0-.13.05-.19a1.25,1.25,0,0,0-.09-.74,2.75,2.75,0,0,0-.2-.38,2.09,2.09,0,0,0-.14-.17h0a1.62,1.62,0,0,1,.35.66,1.29,1.29,0,0,1-.1,1,2.68,2.68,0,0,1-.36.52c-.08.1-.18.2-.27.3a2.85,2.85,0,0,1-.23.26.56.56,0,0,1,0-.08l.13-.15L8,20.1A1.25,1.25,0,0,0,8,20s0,0,0-.06.17-.23.25-.36a1.16,1.16,0,0,0,.18-.9c0-.1-.05-.19-.08-.29h0l0,.09a1.16,1.16,0,0,1,0,.76,2.08,2.08,0,0,1-.32.56l-.53.7h0a2.83,2.83,0,0,1,.2-.28,6,6,0,0,0,.51-.7A1.34,1.34,0,0,0,8.44,19a1.25,1.25,0,0,0-.19-.76,1.11,1.11,0,0,0-1.1-.59.86.86,0,0,0-.8.54,1.86,1.86,0,0,0-.1.31l-.06.21,0-.05a5,5,0,0,0-.32-.48.93.93,0,0,0-.66-.39l.14,0,.13.05s0,0,0,0A1,1,0,0,0,5,17.75a1.19,1.19,0,0,0-1.05.64,1.56,1.56,0,0,0-.19.79,1.19,1.19,0,0,0,.19.68,2.53,2.53,0,0,0,.84.75c.37.22.77.42,1.16.63a7.93,7.93,0,0,1,1,.62,2.66,2.66,0,0,1,.58.58.25.25,0,0,0,0,.07,2.16,2.16,0,0,0-.37-.37,4.81,4.81,0,0,0-1-.6l-1.3-.64a3.66,3.66,0,0,1-.9-.61,1.51,1.51,0,0,1-.52-1.09,1.09,1.09,0,0,1,0-.18Zm5.13,0a1.26,1.26,0,0,0-.2-.66s0,0,0,0a1.41,1.41,0,0,1,.16.67,1.13,1.13,0,0,1-.12.51l-.15.3A1.48,1.48,0,0,0,8.56,18.82Zm-.74-1.09a1.1,1.1,0,0,0-1.22.05A1.16,1.16,0,0,1,7.82,17.73Z"/>
        <path class="d" d="M8.6,19.24l-.07.19h0l.08-.18Z"/>
      </g>
      <g>
        <path class="d" d="M8.4,26.71c0-.05,0-.1,0-.15a1,1,0,0,1,.84-.73.9.9,0,0,1,.64.12.92.92,0,0,1,.22.18l0-.05a.79.79,0,0,1,.68-.38h.2l.14,0a.94.94,0,0,1,.59.56,1,1,0,0,1,.09.42v.15s0,0,0,0a1.08,1.08,0,0,0-.07-.47.92.92,0,0,0-.76-.62.81.81,0,0,0-.65.16.67.67,0,0,0-.14.15l0,0,.17-.14a.75.75,0,0,1,.44-.12.87.87,0,0,1,.56.16,1,1,0,0,1,.32.4,1,1,0,0,1,.07.59.42.42,0,0,1,0,.1h0s0-.08,0-.13a.89.89,0,0,0-.06-.48,2,2,0,0,0-.13-.25L11.55,26h0a1.19,1.19,0,0,1,.23.43.89.89,0,0,1-.07.66,1.69,1.69,0,0,1-.23.34l-.18.2-.15.17s0,0,0-.05l.08-.1.11-.12a.56.56,0,0,1,.05-.08v0l.16-.24a.78.78,0,0,0,.13-.59l-.06-.19h0l0,.05a.72.72,0,0,1,0,.5,1.2,1.2,0,0,1-.2.37l-.35.46h0l.13-.18a3.54,3.54,0,0,0,.33-.46.78.78,0,0,0,.13-.36.8.8,0,0,0-.13-.5.71.71,0,0,0-.72-.39.57.57,0,0,0-.52.35,1.72,1.72,0,0,0-.07.21,1,1,0,0,1,0,.14l0,0a3.53,3.53,0,0,0-.21-.32A.58.58,0,0,0,9.55,26l.09,0,.09,0s0,0,0,0A.87.87,0,0,0,9.4,26a.78.78,0,0,0-.69.43,1,1,0,0,0-.13.51.75.75,0,0,0,.12.44,1.77,1.77,0,0,0,.56.5c.25.15.5.28.76.41a5.59,5.59,0,0,1,.66.41,1.71,1.71,0,0,1,.38.38l0,.05a1.13,1.13,0,0,0-.24-.25,3.83,3.83,0,0,0-.66-.39l-.85-.42a2.17,2.17,0,0,1-.6-.4A1,1,0,0,1,8.39,27v-.27Zm3.37,0a.78.78,0,0,0-.13-.43v0a1,1,0,0,1,.11.44.76.76,0,0,1-.08.33,1.86,1.86,0,0,0-.1.2A1.05,1.05,0,0,0,11.77,26.73ZM11.28,26a.71.71,0,0,0-.8,0A.77.77,0,0,1,11.28,26Z"/>
        <path class="d" d="M11.79,27l0,.12h0l0-.12Z"/>
      </g>
      <path class="e" d="M10.56,56.31l.06.06a2.13,2.13,0,0,0,.62.37,2.92,2.92,0,0,0,1.23.19H14c.37,0,.62.06.87.06a1.78,1.78,0,0,1,1.48.92c.06.19.3.31.43.37a1.57,1.57,0,0,0,.55.13,2,2,0,0,0,.62-.06,17.51,17.51,0,0,1,2.65-.25h.07c.8,0,1.48,0,2.15.06a15.9,15.9,0,0,1,2.72.43c.12,0,.18.06.31.06A3.44,3.44,0,0,0,27,58.9h.31a10.23,10.23,0,0,0,1.54-.31l.19-.06a7.22,7.22,0,0,1,2.28-.31,2.14,2.14,0,0,0,.62.06h.37a9.47,9.47,0,0,0,2.59-.3,7.87,7.87,0,0,0,2.22-.68,2.82,2.82,0,0,0,1.6-1.67,1.9,1.9,0,0,0-.92-2.53,9.3,9.3,0,0,0-1.42-.49,13.45,13.45,0,0,1-3.83-1.67,18.16,18.16,0,0,1-4.87-4.87,29.48,29.48,0,0,1-2.41-4.14,20.61,20.61,0,0,1-2-6.1,11,11,0,0,1-.06-3.52c.06-.06.06-.13.06-.25a4.57,4.57,0,0,1,.8-2.47,11.13,11.13,0,0,0,2-2.34c.19-.43.44-.87.62-1.3.31-.68.62-1.29.93-2a10.55,10.55,0,0,0,.86-3.83,21.35,21.35,0,0,0-.25-3.89c-.18-1-.43-2-.61-2.9v-.06a9,9,0,0,0-.68-2A2.1,2.1,0,0,0,25.06,10C24.69,10,24.32,10,24,9.91a1.11,1.11,0,0,1-.8-.62.58.58,0,0,1,.12-.74,1.78,1.78,0,0,0,.43-.74A5.88,5.88,0,0,0,24,6.46a5.32,5.32,0,0,0-.62-2.84c0-.06-.06-.19-.06-.25h.12V3.31h0V3.19c0-.19-.06-.31-.06-.5A1.67,1.67,0,0,0,22.1,1.21a1.62,1.62,0,0,0-1.92.56,2.82,2.82,0,0,0-.43.74l-.06.18a2.3,2.3,0,0,0-.25.56c-.06.18-.18.37-.24.55a1.06,1.06,0,0,1-.37.5,6.23,6.23,0,0,1,1.29-2.66,2,2,0,0,1,.31-.37c0-.06.06-.12.12-.18L20.68,1h-.25c-.06.07-.12.07-.18.13s-.25.18-.38.24a4.53,4.53,0,0,0-1.66,2.9,3.08,3.08,0,0,0,0,1l-.06.25c-.06,0-.19.06-.25.06a1,1,0,0,0-.55.37,1.17,1.17,0,0,0-.31.8,2,2,0,0,0,.12,1v.06a1.49,1.49,0,0,0,.68.87,1.28,1.28,0,0,0,.68,0A1.73,1.73,0,0,1,19.13,10a1.63,1.63,0,0,1-.61,1.3,1.78,1.78,0,0,1-.74.37,2.78,2.78,0,0,0-1.73,3.27c.06.12.06.18.12.31a.21.21,0,0,1,.06.12v.06l.19-.06L16.48,14c0,.06.06.13.06.19a3.46,3.46,0,0,1-.06,1.11v.06a2.38,2.38,0,0,0,.37,2c.19.24.31.49.5.74l.06.12A2.22,2.22,0,0,1,17.72,20v-.06a7,7,0,0,0-.37-1.55c0-.12-.07-.12-.13-.12s-.12,0-.24.12-.07.13-.07.25c.13.49.19.86.31,1.23a.41.41,0,0,0,.31.25h.12l-.18.37c-.12.25-.31.5-.43.74l-.13.19a4.09,4.09,0,0,1-.31.49c-.18.31-.43.68-.61,1.05a7.42,7.42,0,0,0-.8,4.44c.12.93.3,1.91.49,2.72l.12.43c0,.06.06.18.06.25h0a6.2,6.2,0,0,0-.37-.5c-.12-.24-.18-.43-.3-.68-.07-.06-.07-.18-.13-.24l-.12-.13-.19-.37v-.12h.13a.22.22,0,0,0,.18.06l.25.06.06-.18v-.13A2.66,2.66,0,0,1,14.88,27v-.06a3.62,3.62,0,0,1,.24-1.36h0c.07-.24.19-.49.25-.74l.12-.49-.18.06a1.11,1.11,0,0,0-.62.56,4.53,4.53,0,0,0-.37,1,8.24,8.24,0,0,0-.12,2.1v.19a2,2,0,0,0,.18.86c.19.43.44.87.68,1.3l.19.37c.12.12.18.24.24.24a.23.23,0,0,0,.19.07c.06,0,.12-.07.18-.07A.21.21,0,0,0,16,31a11.81,11.81,0,0,1,.37,2.1,16.89,16.89,0,0,1-.31,4.2A28.11,28.11,0,0,1,14.69,42c-.24.55-.43,1.11-.61,1.66-.5,1.36-1,2.78-1.49,4.2a64.43,64.43,0,0,0-2,8.26C10.5,56.19,10.56,56.37,10.56,56.31Zm4.63,0c0,.12,0,.18-.07.25s-.12.06-.24.06h-.37a14.71,14.71,0,0,1-3-.25c-.19-.06-.25-.06-.31-.12V56c.06-.31.12-.68.18-1,.19-1,.43-2,.68-3.08A58.78,58.78,0,0,1,14,45.76c.43-1.11.8-2.28,1.24-3.39a5.58,5.58,0,0,1,.3-.93c0,.18-.06.37-.06.56-.12.92-.24,1.91-.31,2.9l-.18,3.7v2.59c0,1.11.06,2.22.12,3.33V55c0,.25.06.5.06.74A1.54,1.54,0,0,0,15.19,56.31ZM25.37,10.53l-.07.06a.27.27,0,0,1,.19.18.19.19,0,0,1-.19.19c-.06,0-.12-.06-.12-.19s.06-.06.06-.12.06-.06.13-.06v-.06Zm-8-3.7a1.18,1.18,0,0,0,.8.74h0a.63.63,0,0,0,.55.06.26.26,0,0,1-.06.18,4.22,4.22,0,0,0-.49.19H18c-.18-.06-.31-.37-.43-.62a2.16,2.16,0,0,1-.18-.8A1.87,1.87,0,0,1,17.47,6C17.41,6.33,17.47,6.64,17.41,6.83ZM22.65,34.9a15.53,15.53,0,0,0,.68,3.7,27.41,27.41,0,0,0,5.24,9.69,16.63,16.63,0,0,0,5.06,4,12.93,12.93,0,0,0,3,1A1.89,1.89,0,0,1,38.2,55a1.84,1.84,0,0,1-1.3,1.92,3,3,0,0,1-1.11.18,5.83,5.83,0,0,0-1.72.31,2.78,2.78,0,0,1-1.24.31c-.18,0-.37-.06-.55-.06h-.07a6.16,6.16,0,0,0-1-.13H31a7.94,7.94,0,0,0-1.66.25l-.19.06c-.68.19-1.3.25-1.85.37a3.24,3.24,0,0,1-1.79-.31h-.06a4.6,4.6,0,0,0-1.54-.43H22.47a4.85,4.85,0,0,1-.93.06H19.81c-.61,0-1.29.07-1.91.07a1.76,1.76,0,0,1-1.79-1.12,2.51,2.51,0,0,1-.37-1.41c0-.37-.06-.68-.06-1-.06-1.24-.12-2.53-.12-3.77,0-1.54.06-3.14.18-5.12.06-1.11.25-2.28.37-3.39l.06-.56c.13-.68.19-1.35.31-2s.19-1.11.25-1.67A20.68,20.68,0,0,0,17,33.17a19.89,19.89,0,0,0-.62-3.7,17.31,17.31,0,0,1-.5-2.65,7,7,0,0,1,.37-2.72c.25-.55.62-1.11.93-1.66.06-.13.19-.31.25-.44.24-.43.55-.92.8-1.48A2.69,2.69,0,0,0,18,17.81a15.21,15.21,0,0,1-.8-1.3,1.44,1.44,0,0,1,.49-1.85,1.23,1.23,0,0,1,.74-.24,1.39,1.39,0,0,1,1.3.86,2.68,2.68,0,0,1,.25.55.85.85,0,0,0,.12.37,2.28,2.28,0,0,0,.49.68l.07.06.06-.12c0-.12.06-.18.06-.25a1.21,1.21,0,0,1,.12-.43,2.72,2.72,0,0,1,1.79-1.85,2.12,2.12,0,0,1,2.1.31A2,2,0,0,1,25.18,17,7.13,7.13,0,0,0,24,20.4a9.73,9.73,0,0,0,.25,3c.12.56.24,1.05.3,1.54a3.81,3.81,0,0,1-.3,2.47c-.13.31-.25.56-.37.87s-.31.67-.44,1a11.34,11.34,0,0,0-.74,3A9.86,9.86,0,0,0,22.65,34.9Zm3-20.42v-.13a3.91,3.91,0,0,1,.13-1.54,6,6,0,0,1,.62-1.29.6.6,0,0,1,.24.3,5.71,5.71,0,0,1,.25,1c.18.8.31,1.61.43,2.41l.19.92a27.37,27.37,0,0,1,.37,3,9,9,0,0,1-.5,3.33,31.69,31.69,0,0,1-2.28,4.93c-.19.25-.37.44-.56.68s-.18.19-.24.31l-.06.06a.71.71,0,0,1,.06-.31c.12-.18.18-.37.31-.55a3.79,3.79,0,0,0,.55-2.9c-.12-.8-.31-1.61-.49-2.35h0A6.49,6.49,0,0,1,25,18.61c.18-.37.37-.8.55-1.23.06-.19.19-.37.25-.56v-.06a5.49,5.49,0,0,1,.92,2A2,2,0,0,1,26.66,20l-.12.43c-.31,1-.68,1.91-1,2.9a2.29,2.29,0,0,0-.12.68.53.53,0,0,0,.31.49l.06.07.06-.19c0-.12.06-.18.06-.25a29.19,29.19,0,0,1,1.42-4.07,1.8,1.8,0,0,0-.06-1.6c-.06-.19-.19-.31-.25-.5a6.89,6.89,0,0,1-.49-1,1.62,1.62,0,0,1-.12-.62,3.16,3.16,0,0,0-2.6-2.78,3.53,3.53,0,0,0-1.79.25.76.76,0,0,1,.68-.43.33.33,0,0,0,.31-.19l.13-.12h0a.61.61,0,0,0,.61.31h.56a.41.41,0,0,1,.43.37v.12l.43-.18a.93.93,0,0,0,.43.86Zm-.61-3h0v.06h.12v.12c0,.12,0,.12-.06.12s-.19-.06-.19-.12.07-.12.13-.12Zm-.43,1.17s0-.13.06-.13a.2.2,0,0,1,.18.07v.06a.22.22,0,0,1-.18.12C24.63,12.81,24.56,12.75,24.63,12.69ZM23.08,8a.52.52,0,0,1-.24.43s-.07,0-.07-.06h0A.65.65,0,0,1,23.08,8Zm.5,2.53h.06l-3.33,5.12A2.13,2.13,0,0,0,19,14.23a2,2,0,0,0-2,.06.73.73,0,0,1,.06-.62.84.84,0,0,0,.68.13.91.91,0,0,0,.55-.37l1.42,1v-.13c0-.12,0-.12-.06-.18a2.91,2.91,0,0,1-.31-3.34,2.45,2.45,0,0,0-.12-2.65.06.06,0,0,0,.06-.06.89.89,0,0,0,.12-.37A2.61,2.61,0,0,0,19.38,7l-.18-.55c.55-1,.61-1,1.85-1.79l.18-.13-.12-.12-.06-.06a1,1,0,0,1,.55-1.73.34.34,0,0,1,.31.12,5.5,5.5,0,0,1,.74,1.11.52.52,0,0,1,.12.25v.06a1.31,1.31,0,0,0-.49.5l-.06.12.18-.06a.51.51,0,0,1,.5.06l-.43.12.12.19.06.06a1.66,1.66,0,0,1,.5,1.73A1.76,1.76,0,0,1,21.6,8.18,1.47,1.47,0,0,1,20.92,8c-.61-.31-1.11-.62-1.11-.62l-.12-.06v.12c-.06.43.68.68,1.91,1.11l.25.07c.12.06.12.06.18.18A3.3,3.3,0,0,0,23.58,10.53Zm-2.1-8.64a.21.21,0,0,0,.06-.12c.12-.07.19-.13.25-.13a.41.41,0,0,1,.24.13,2,2,0,0,1,.56.74v.06a1.88,1.88,0,0,0-1-.62A.21.21,0,0,1,21.48,1.89ZM18.76,5.35a.42.42,0,0,1,.13-.44c.06-.12.18-.18.24-.24a3.46,3.46,0,0,0,.68-.81,3.37,3.37,0,0,1,1.3-1.66l.06-.06a.06.06,0,0,1,.06.06.23.23,0,0,1-.12.31,1.29,1.29,0,0,0-.93,1.6v.25c-.06.06-.12.18-.18.18a.21.21,0,0,0-.13-.06.06.06,0,0,0-.06-.06l-.06-.12-.25.24a4.59,4.59,0,0,0-.43.5v.12h0v.06c0,.06-.06.13-.06.19s-.12.06-.18.06A.2.2,0,0,1,18.76,5.35Zm4.69,6.84h-.06l.06.07a.08.08,0,0,1,0,.12.06.06,0,0,1-.06.06l-.06-.06h0a.21.21,0,0,1,.06-.12h.06v-.07Zm.62-.12a.06.06,0,0,0,.06-.06.34.34,0,0,1,.19-.12h0c0,.06.06.06.06.12v.06a.28.28,0,0,1-.19.06h0C24.19,12.07,24.13,12.07,24.07,12.07Zm-7.16,1.36v-.06L16.73,13c-.06-.07,0-.07,0-.13a.06.06,0,0,1,.06-.06l.06-.06a.2.2,0,0,1,.13-.06.13.13,0,0,1,.12.12C17.16,13,17,13.18,16.91,13.43ZM18,6.09C18,6,18,6,18.09,5.9h.18a.47.47,0,0,1,.25.25c.06.06.06.18.12.31A1.38,1.38,0,0,0,18,6.09Zm6.48,4.44v.06l.06.06a.06.06,0,0,0-.06.06.21.21,0,0,1-.12.06h0a.06.06,0,0,0-.06-.06.06.06,0,0,0,.06-.06.21.21,0,0,1,.12-.06v-.06Z"/>
      <path class="f" d="M55.59,26.78c-.74,0-.62-1.09-1.17-1.27-.07.69.25,1.6-.57,1.87.06.1,0,.13,0,.2.22.21.53,0,.82,0,.56.17.59.9,1.06,1.41.44-.32-.09-.84,0-1.27s.32-.62.52-.92l0-.14A1,1,0,0,0,55.59,26.78Zm-.28,1.08a1.48,1.48,0,0,0-.76-.6,1.37,1.37,0,0,1,.29-.66,1.46,1.46,0,0,0,.74.45A2.67,2.67,0,0,1,55.31,27.86Z"/>
      <path class="f" d="M34.18,17.12c0-.61.78-1,.67-1.67-.67,0-1,.91-1.56.92-.38,0-.51-.63-.82-.87a.76.76,0,0,0-.35.13,4.75,4.75,0,0,1,.1,1.42c-.38.29-.81.55-1.18.85,0,.08.17.12,0,.15.35.16.86,0,1.21.18a6.71,6.71,0,0,1,.14,1.06c0,.28,0,.73.29.69.2-.43.35-1.07.59-1.46a.35.35,0,0,1,.34-.19c.5.07,1,.6,1.54.54a.13.13,0,0,1,0-.16C35,18.11,34.18,17.78,34.18,17.12Zm.5,1.31c-.36,0-.88-.43-1.43-.37-.23.36-.26,1-.56,1.22A8.87,8.87,0,0,1,32.57,18c-.36-.05-.8,0-1.09-.09.18-.36.71-.52,1-.7.07-.39-.16-1,0-1.29,0,.08.11.11.16.25s.34.44.64.53a7,7,0,0,1,1.17-.78c-.1.5-.53,1-.62,1.37A8.09,8.09,0,0,1,34.68,18.43Z"/>
      <g>
        <g>
          <path class="g" d="M40.88,26.1S38.06,33.39,33,34.77a17.63,17.63,0,0,0-1.13,2.76,33.84,33.84,0,0,1-3.07,5.24c-.8,1-.49,1.31-.19,1.61l.45-.73s.72-.15,1.56.94a6.21,6.21,0,0,0,6.53,2.72,7.83,7.83,0,0,1,4.55-.13A5.72,5.72,0,0,0,47,46.49c2.13-1.4,3-2,3.75-1.18s3.12.84,5.5-1.63a34.13,34.13,0,0,0-4.62-8l-.44-.87"/>
          <path class="g" d="M39.3,18.93l-.55,3.37a7.61,7.61,0,0,1,1,1.11,1.47,1.47,0,0,1,.75-.41"/>
          <path class="g" d="M40.48,23a1.47,1.47,0,0,0-.75.41s-1.53,1.51-3.34,3.66a1.43,1.43,0,0,1-.67.55c-.23.15-.23.45-.26.76a1.05,1.05,0,0,1-.42.81c-.25.17-.32,0-.32,0s.13.33.06.46l-.35.6a18.2,18.2,0,0,1-1.52,2.38c-.66,1.07-.78,2.36.27,2.15s6-3,7.63-8.34c0,0,2.13,10.32,7.48,10.13,4.93-.18,2.93-4.66,2.18-5.74"/>
          <path class="h" d="M47.69,27a.38.38,0,0,1-.06.39,3.22,3.22,0,0,0-.46,1.49c-.11.7-.28,1.18.14,1.13s.54-.26.55-.66.11-.66.4-.15a6.22,6.22,0,0,1,.6,1.81c.14.64.5.81.53.26s.22-.5.41-.93L50,30"/>
          <g>
            <path class="g" d="M47.14,16.09c-.76-.9-2.2,0-2.2,0a1.73,1.73,0,0,1-.39-.1c-.16-.08-.19-.58-.19-.58l-1.68.62s.19.41-.13.51c-.86.26-1.28.48-1.52.42l0,0c-.29,0-.8.09-.79.73a2.48,2.48,0,0,0,.19,1c.85.43.72,1.84.72,1.84,1.5-2.15,3.18-2,4.12-1.59A4.89,4.89,0,0,1,47.14,16.09Z"/>
            <path class="g" d="M48.26,16.2c-.4-.61-1.12-.11-1.12-.11A4.89,4.89,0,0,0,45.24,19a2.21,2.21,0,0,1,.6.4.49.49,0,0,0,.45-.22,3.25,3.25,0,0,1,2.13-1"/>
          </g>
          <g>
            <path class="g" d="M40.4,18.75l.08-.08.08-.09a.1.1,0,0,1,0,0l0-.05,0-.06,0-.05.07-.1.06-.1a.94.94,0,0,1,0,.12s0,0,0,.06l0,.06s0,0,0,.06l0,.06-.1.1a.1.1,0,0,1,0,0l-.05,0Z"/>
            <path class="g" d="M42.72,16.24a.37.37,0,0,1,.05.11l0,.11,0,.13s0,.08,0,.13,0,.08,0,.11l0,.12a.6.6,0,0,1,0-.11.43.43,0,0,1,0-.11s0-.05,0-.07a.13.13,0,0,1,0-.06c0-.09,0-.18,0-.24Z"/>
            <path class="g" d="M44.92,16.12l-.05.07a.65.65,0,0,1-.12.11.37.37,0,0,1-.15.08l-.07,0a.28.28,0,0,1,0-.07l.13-.11a.34.34,0,0,1,.14-.08Z"/>
            <path class="g" d="M44.38,15.81a.14.14,0,0,1,0,.06.57.57,0,0,1,0,.14.61.61,0,0,1,0,.14.09.09,0,0,1,0,.06l0-.06a.42.42,0,0,1,0-.13.33.33,0,0,1,0-.14Z"/>
          </g>
          <g>
            <path class="g" d="M43.84,32.36l.15.19.43.48.3.31.36.32.39.33.43.31a4.08,4.08,0,0,0,.44.28,2.53,2.53,0,0,0,.23.12l.23.11.11,0,.11,0,.22.08.11,0,.1,0,.2,0,.36.07.28,0h0l-.29,0-.17,0-.19,0-.2,0-.11,0-.11,0L47,35l-.23-.1-.24-.1-.23-.13c-.15-.08-.3-.18-.45-.28a4.73,4.73,0,0,1-.43-.31l-.4-.34c-.24-.23-.46-.46-.63-.66s-.32-.38-.41-.5Z"/>
            <path class="g" d="M50.47,30.8a1.78,1.78,0,0,1,.07.17,4.31,4.31,0,0,1,.17.46,5.86,5.86,0,0,1,.2.66c.05.24.11.51.14.78l0,.4c0,.13,0,.26,0,.39A1.91,1.91,0,0,1,51,34c0,.06,0,.11-.05.16s0,.1-.08.14a.62.62,0,0,1-.08.12l-.09.1-.09.08-.08.05,0,0,0,0-.05,0,0,0,0,0,.06,0,.06-.05.08,0a.6.6,0,0,1,.08-.08,1.39,1.39,0,0,0,.15-.22l.06-.14a.75.75,0,0,0,0-.16c0-.11,0-.23,0-.35a1.6,1.6,0,0,0,0-.38,2.56,2.56,0,0,0,0-.39c0-.27-.08-.53-.13-.77s-.11-.47-.16-.67C50.56,31.06,50.47,30.8,50.47,30.8Z"/>
          </g>
          <g>
            <path class="g" d="M32.88,34.81s0,.13,0,.36,0,.25,0,.41,0,.35,0,.54c0,.4-.07.86-.09,1.36,0,.25,0,.5,0,.76s0,.53,0,.79,0,.53,0,.79,0,.52,0,.76,0,.49.05.72,0,.44.07.63.06.38.09.54a2.69,2.69,0,0,0,.09.4l.08.36-.1-.35c0-.11-.07-.25-.1-.41s-.08-.33-.11-.53-.06-.41-.08-.64,0-.46-.07-.71l0-.77c0-.26,0-.52,0-.79s0-.53,0-.79,0-.52,0-.77,0-.48,0-.71,0-.44.07-.64c0-.4.08-.72.11-.95Z"/>
            <path class="g" d="M31.74,37.79s0,.1,0,.26-.07.39-.11.67-.05.29-.07.44-.05.33-.08.51-.05.35-.07.53l-.06.56,0,.27,0,.28c0,.18,0,.36,0,.54s0,.34,0,.5,0,.32,0,.46,0,.26,0,.38a.86.86,0,0,1,0,.16.69.69,0,0,1,0,.13c0,.16,0,.26,0,.26l-.06-.26a.69.69,0,0,0,0-.13l0-.16c0-.11,0-.24,0-.38a3.45,3.45,0,0,1,0-.46,4.21,4.21,0,0,1,0-.5,5.21,5.21,0,0,1,0-.55c0-.09,0-.18,0-.27l0-.28c0-.19.05-.38.07-.56s.05-.36.08-.54c.05-.34.12-.67.17-.94s.11-.51.14-.67Z"/>
            <path class="g" d="M37,32.37s0-.22,0-.13-.09.5-.13.67-.1.38-.16.62-.11.52-.17.82-.12.62-.18,1c0,.17,0,.35-.08.53s-.05.37-.08.56l-.06.57c0,.1,0,.2,0,.3l0,.29c0,.2,0,.4,0,.6s0,.41,0,.61,0,.41,0,.61,0,.4,0,.6c0,.4,0,.79,0,1.17s0,.75.06,1.1c0,.17,0,.34,0,.51l.06.47c.05.3.08.58.11.82s.09.46.12.63c.06.35.1.55.1.55s0-.2-.12-.55c0-.17-.08-.38-.13-.62s-.08-.53-.13-.83L36,42.76c0-.16,0-.33,0-.51,0-.34-.08-.71-.08-1.09s0-.78,0-1.18v-.6l0-.61,0-.61.06-.6,0-.3c0-.1,0-.2,0-.3s0-.38.07-.57,0-.38.08-.56,0-.36.09-.53c.06-.34.12-.67.19-1s.13-.57.19-.82.12-.44.17-.61.09-.31.12-.4Z"/>
            <path class="g" d="M37.91,31.61c0-.13,0-.2-.07.59,0,.37-.08.91-.13,1.55s-.07,1.39-.07,2.2c0,.4,0,.81,0,1.24s0,.85.06,1.28c0,.21,0,.42,0,.64l0,.32,0,.31c0,.21,0,.42.07.63s.05.4.08.6c.06.4.12.78.19,1.15,0,.18.08.35.11.52l.06.25.06.24c.07.31.15.6.22.85s.15.47.2.65c.13.35.2.56.2.56l-.21-.56c-.06-.17-.14-.39-.22-.64l-.12-.4c0-.14-.08-.29-.12-.45l-.07-.23a1.84,1.84,0,0,0,0-.25l-.12-.53c-.08-.36-.15-.75-.21-1.14,0-.2-.06-.41-.08-.61s0-.42-.07-.63a3.11,3.11,0,0,1,0-.32c0-.1,0-.21,0-.32s0-.42,0-.64c0-.43,0-.86,0-1.28s0-.84,0-1.24,0-.8,0-1.17,0-.71.06-1c.05-.64.12-1.17.17-1.54S37.91,31.61,37.91,31.61Z"/>
            <path class="g" d="M39.88,28.88a.48.48,0,0,0-.1.72q0,.36-.06.84c0,.33,0,.69,0,1.09s0,.84,0,1.29.07.94.12,1.44.13,1,.22,1.52.19,1,.31,1.56c.06.26.13.52.19.77l.21.77c.07.25.15.5.22.74s.17.49.24.72.17.47.25.7.18.44.26.65.17.42.25.62.16.39.25.57c.17.37.31.7.46,1s.26.55.37.76c.22.41.34.65.34.65l-.35-.65c-.12-.2-.24-.45-.39-.74s-.31-.62-.48-1c-.09-.18-.16-.37-.25-.57s-.18-.4-.26-.61-.18-.43-.26-.66-.17-.45-.26-.69l-.24-.72c-.08-.25-.15-.5-.23-.75l-.21-.76c-.07-.26-.14-.52-.2-.78-.11-.52-.22-1-.3-1.57s-.16-1-.22-1.52-.09-1-.1-1.44,0-.9,0-1.3,0-.77,0-1.09.05-.61.08-.84C39.83,29.14,39.88,28.88,39.88,28.88Z"/>
            <path class="g" d="M42.17,31.07s0,.2,0,.54,0,.84.11,1.42c0,.3.07.61.12.95s.11.68.17,1c0,.19.07.37.1.55l.12.57c.05.18.09.37.14.56L43,37l.07.28c.11.38.22.75.35,1.12.06.18.12.36.19.54s.13.35.2.52L44,40l.21.48c.14.3.28.59.43.85s.13.25.2.37.13.22.19.33l.33.52c.2.28.31.45.31.45l-.32-.44L45,42c-.12-.2-.27-.43-.41-.69s-.29-.54-.44-.84L44,40c-.07-.16-.14-.33-.22-.5s-.13-.34-.2-.52l-.19-.54c-.13-.37-.25-.75-.35-1.13L42.93,37c0-.1,0-.19-.07-.29s-.09-.38-.14-.57l-.12-.56c0-.19-.07-.37-.1-.55-.06-.37-.11-.72-.15-1.06s-.08-.65-.11-.94c-.05-.59-.07-1.08-.07-1.43S42.17,31.07,42.17,31.07Z"/>
            <path class="g" d="M43.2,33s0,.21.14.56.25.86.45,1.46c.11.3.22.62.36,1s.27.69.44,1.05.33.73.52,1.1.38.74.6,1.11c.1.18.21.36.32.54s.23.35.34.52.23.34.35.51l.36.48.36.46.36.42c.24.27.48.52.7.74.06.06.11.12.17.17l.16.15.3.28.51.43.46.35L49.63,44l-.52-.42c-.19-.17-.42-.35-.64-.58s-.47-.47-.72-.73l-.37-.42L47,41.34l-.37-.48c-.11-.17-.24-.33-.35-.51L46,39.82l-.33-.54c-.21-.36-.41-.74-.6-1.11s-.36-.74-.52-1.11-.3-.72-.42-1.06-.25-.66-.34-1c-.2-.6-.34-1.12-.42-1.47S43.2,33,43.2,33Z"/>
            <path class="g" d="M51.71,35.87s.14.4.31,1c0,.15.08.32.13.5s.09.37.13.56.09.4.13.61.08.41.12.62.07.42.1.63,0,.42.07.62,0,.39,0,.57,0,.36,0,.52V42a3.22,3.22,0,0,1,0,.33c0,.19,0,.3,0,.3v-.3c0-.09,0-.2,0-.33s0-.28,0-.44l0-.51c0-.19,0-.38-.07-.58s0-.4-.08-.61-.06-.41-.1-.62-.07-.42-.11-.63-.08-.41-.12-.6-.09-.39-.13-.57-.07-.34-.11-.5-.14-.57-.18-.75Z"/>
          </g>
          <path class="g" d="M45.39,22.4a2.13,2.13,0,0,0,1-1.56,2,2,0,0,0-.54-1.44c-.58-.58-2.8-1.57-4.72,1.19,0,0,.13-1.41-.72-1.84a2.29,2.29,0,0,0-.78.57,1.89,1.89,0,0,0,.13,2.22,4.16,4.16,0,0,1,.48,1.53s-.33.13-.16,1a12.47,12.47,0,0,0,.71,2.08A6.51,6.51,0,0,1,45,23.34S45.08,22.63,45.39,22.4Z"/>
          <path class="g" d="M39.75,21.54l0,0,.07.05,0,0,0,0,.06,0,.06,0,.05,0,.06,0,.06,0h.05l.11,0-.12,0h-.12l-.06,0-.07,0-.06,0-.06,0,0,0,0,0,0-.07A.1.1,0,0,1,39.75,21.54Z"/>
          <g>
            <path class="g" d="M41,17c-.22-.09-.29-.58-.71-.58s-.63.82-.63.82A1.78,1.78,0,0,0,39,18.83a.64.64,0,0,0,.66.41l-.06.08a2.29,2.29,0,0,1,.78-.57,2.48,2.48,0,0,1-.19-1C40.2,17.07,40.71,17,41,17Z"/>
            <path class="g" d="M39.66,17.22a.94.94,0,0,1,0,.12.56.56,0,0,1,0,.13v.14a.57.57,0,0,1,0,.13v.13a.68.68,0,0,1,0,.12s0,0,0-.12a.43.43,0,0,1,0-.12.76.76,0,0,1,0-.15c0-.05,0-.1,0-.14a1,1,0,0,1,0-.12l0-.09Z"/>
            <g class="i">
              <path class="g" d="M39.52,17.57c0,.34.24,1,.19.54a2.66,2.66,0,0,1,.14-1.38h0a1.84,1.84,0,0,0-.18.49,2.57,2.57,0,0,0-.28.29C39.46,17.45,39.52,17.45,39.52,17.57Z"/>
            </g>
            <g class="j">
              <path class="g" d="M41,17a.69.69,0,0,0-.6,0c-.29.17-.38.8-.11,1.39a3.6,3.6,0,0,1-.06-.65C40.2,17.08,40.69,17,41,17Z"/>
            </g>
          </g>
          <path class="k" d="M45.71,15.88a1,1,0,0,1,.82-.09C47,16,45.35,16.2,45.71,15.88Z"/>
          <g>
            <path class="g" d="M49,22.87s-.7-4.1-.88-4.67a3,3,0,0,0-1.68.82l.95,4.15A2,2,0,0,1,49,22.87Z"/>
            <g class="l">
              <path class="h" d="M48,22.79c-.43.08-.45.36-.67-.47-.22-1-.79-3.13-.46-3.43a3.06,3.06,0,0,1,1.27-.6.51.51,0,0,1,0-.09,3,3,0,0,0-1.68.82l.95,4.15a2,2,0,0,1,1.61-.3v-.05A3.25,3.25,0,0,0,48,22.79Z"/>
            </g>
          </g>
          <g>
            <path class="g" d="M34.72,29.16s.07.2.32,0a1.05,1.05,0,0,0,.42-.81c0-.31,0-.61.26-.76a1.43,1.43,0,0,0,.67-.55c1.81-2.15,3.34-3.66,3.34-3.66a7.61,7.61,0,0,0-1-1.11l-.26-.19a17.56,17.56,0,0,0-2.31,4.05C36,26.49,35,27,35,27.29s-.05.24-.36.56a1,1,0,0,0-.18.85,3.54,3.54,0,0,0,0,1.52l.35-.6C34.85,29.49,34.72,29.16,34.72,29.16Z"/>
            <g>
              <path class="g" d="M35,27.37a.28.28,0,0,1,0,.08q0,.07,0,.21v.13c0,.05,0,.11,0,.16a.91.91,0,0,0,0,.17c0,.05,0,.11,0,.17l0,.17a.9.9,0,0,1,0,.16l0,.15a.5.5,0,0,1,0,.13l-.09.19,0,.07a.24.24,0,0,1,0-.08l0-.19,0-.14,0-.15,0-.08a.25.25,0,0,1,0-.08c0-.05,0-.11,0-.16a1.11,1.11,0,0,0,0-.17c0-.06,0-.11,0-.16a2.33,2.33,0,0,1,0-.29c0-.09,0-.16,0-.21Z"/>
              <path class="g" d="M34.45,28.7a1.1,1.1,0,0,1,.06.16l.06.17c0,.06,0,.13,0,.2s0,.14,0,.2a.34.34,0,0,0,0,.1v.26a1,1,0,0,1-.05-.17s0-.05,0-.08,0-.06,0-.09l0-.2c0-.14-.05-.27-.06-.38A1,1,0,0,1,34.45,28.7Z"/>
            </g>
            <g class="i">
              <path class="g" d="M36.28,26.19c.14-.38.33-1,.4-1.18a9.75,9.75,0,0,0-.5,1.15,1.23,1.23,0,0,1-.38.38C36,26.45,36.22,26.4,36.28,26.19Z"/>
            </g>
            <g class="j">
              <path class="g" d="M34.74,29.22v0a0,0,0,0,1,0,0Z"/>
              <path class="g" d="M34.72,29.72l-.08.15A.55.55,0,0,0,34.72,29.72Z"/>
              <path class="g" d="M34.4,30.09l0,.13.21-.35A1.31,1.31,0,0,1,34.4,30.09Z"/>
              <path class="g" d="M34.72,29.72l.06-.1a.69.69,0,0,0,0-.4A.87.87,0,0,1,34.72,29.72Z"/>
              <path class="g" d="M37.09,26.11c-.88,1.06-1,1.24-1.36,1.36s-.28.32-.3.63,0,1-.65,1c0,0-.05,0,0,.06s.12.12.3,0a1.05,1.05,0,0,0,.42-.81c0-.31,0-.61.26-.76a1.43,1.43,0,0,0,.67-.55c.62-.73,1.2-1.39,1.71-1.95A10.52,10.52,0,0,0,37.09,26.11Z"/>
            </g>
          </g>
          <path class="g" d="M40.78,26.16a12.47,12.47,0,0,1-.71-2.08c-.17-.88.16-1,.16-1a.56.56,0,0,0-.9.36c-.21.79.78,2.27,1.48,3a19,19,0,0,1,3.33-1.85c1.4-.51,1.63-.68,1.49-1s-.62-.21-.62-.21A6.51,6.51,0,0,0,40.78,26.16Z"/>
          <g>
            <g>
              <path class="g" d="M40.37,19.12a.1.1,0,0,1-.1.1.09.09,0,0,1-.1-.1.1.1,0,0,1,.1-.1A.11.11,0,0,1,40.37,19.12Z"/>
              <path class="h" d="M40.34,19.06a.07.07,0,0,1,0,.07.07.07,0,0,1-.09,0,.08.08,0,0,1,0-.07h0a.07.07,0,0,0,0,.06.09.09,0,0,0,.1.1.1.1,0,0,0,.1-.1A.09.09,0,0,0,40.34,19.06Z"/>
              <path class="g" d="M40.31,19.06a.07.07,0,0,0-.06,0s0,0,0,0h0a.09.09,0,0,1,.1,0S40.31,19.06,40.31,19.06Z"/>
              <path class="g" d="M40.33,19.06h0S40.34,19.07,40.33,19.06Z"/>
            </g>
            <g>
              <path class="g" d="M40.62,19.5a.1.1,0,0,1-.1.1.1.1,0,1,1,0-.2A.1.1,0,0,1,40.62,19.5Z"/>
              <path class="h" d="M40.6,19.44a.07.07,0,0,1,0,.06.07.07,0,0,1-.09,0,.09.09,0,0,1,0-.07h0a.11.11,0,0,0,0,.06.09.09,0,0,0,.1.1.1.1,0,0,0,.1-.1A.11.11,0,0,0,40.6,19.44Z"/>
              <path class="g" d="M40.56,19.43H40.5a.05.05,0,0,0,0,0h0a.09.09,0,0,1,.1,0A0,0,0,0,0,40.56,19.43Z"/>
              <path class="g" d="M40.58,19.44h0v0h0S40.59,19.44,40.58,19.44Z"/>
            </g>
            <g>
              <path class="g" d="M40.79,19.93a.1.1,0,0,1-.1.1.1.1,0,0,1-.11-.1.11.11,0,0,1,.11-.1A.11.11,0,0,1,40.79,19.93Z"/>
              <path class="h" d="M40.76,19.87a.07.07,0,0,1,0,.07.07.07,0,0,1-.09,0,.07.07,0,0,1,0-.07h0a.09.09,0,0,0,0,.06.1.1,0,0,0,.11.1.1.1,0,0,0,.1-.1A.09.09,0,0,0,40.76,19.87Z"/>
              <path class="g" d="M40.73,19.87a.07.07,0,0,0-.06,0s-.05,0-.05,0h0a.08.08,0,0,1,.1,0Z"/>
              <path class="g" d="M40.75,19.87h0S40.76,19.88,40.75,19.87Z"/>
            </g>
            <g>
              <path class="g" d="M40.91,20.41a.1.1,0,0,1-.1.1.11.11,0,0,1-.1-.1.1.1,0,0,1,.1-.1A.09.09,0,0,1,40.91,20.41Z"/>
              <path class="h" d="M40.89,20.34a.06.06,0,0,1,0,.07.09.09,0,0,1-.1,0,.08.08,0,0,1,0-.07h0a.09.09,0,0,0,0,.07.11.11,0,0,0,.1.1.1.1,0,0,0,.1-.1A.08.08,0,0,0,40.89,20.34Z"/>
              <path class="g" d="M40.85,20.34s0,0-.05,0,0,0,0,0h0a.08.08,0,0,1,.1,0S40.86,20.34,40.85,20.34Z"/>
              <path class="g" d="M40.88,20.35h0S40.89,20.35,40.88,20.35Z"/>
            </g>
            <g>
              <path class="g" d="M41.15,20.87a.1.1,0,1,1-.2,0,.1.1,0,1,1,.2,0Z"/>
              <path class="h" d="M41.13,20.8a.14.14,0,0,1,0,.07.09.09,0,0,1-.1,0,.07.07,0,0,1,0-.07h0a.14.14,0,0,0,0,.07.1.1,0,1,0,.2,0A.14.14,0,0,0,41.13,20.8Z"/>
              <path class="g" d="M41.09,20.8s0,0-.06,0a.05.05,0,0,0-.05,0h0a.06.06,0,0,1,.09,0Z"/>
              <path class="g" d="M41.12,20.81h0Z"/>
            </g>
            <g>
              <path class="g" d="M41.53,20.62a.1.1,0,0,1-.1.1.1.1,0,1,1,0-.2A.1.1,0,0,1,41.53,20.62Z"/>
              <path class="h" d="M41.5,20.56a0,0,0,0,1,0,.06.07.07,0,0,1-.09,0,.09.09,0,0,1,0-.07h0s0,0,0,.06a.09.09,0,0,0,.1.1.1.1,0,0,0,.1-.1A.07.07,0,0,0,41.5,20.56Z"/>
              <path class="g" d="M41.47,20.55h-.06s0,0,0,0h0a.09.09,0,0,1,.1,0Z"/>
              <path class="g" d="M41.49,20.56h0v0h0S41.5,20.56,41.49,20.56Z"/>
            </g>
            <g>
              <path class="g" d="M41.84,20.21a.1.1,0,0,1-.1.1.09.09,0,0,1-.1-.1.1.1,0,0,1,.1-.1A.11.11,0,0,1,41.84,20.21Z"/>
              <path class="h" d="M41.81,20.15a.07.07,0,0,1,0,.07.07.07,0,0,1-.09,0,.08.08,0,0,1,0-.07h0a.07.07,0,0,0,0,.06.09.09,0,0,0,.1.1.1.1,0,0,0,.1-.1A.09.09,0,0,0,41.81,20.15Z"/>
              <path class="g" d="M41.78,20.15s0,0-.06,0,0,0,0,0h0a.09.09,0,0,1,.1,0S41.78,20.15,41.78,20.15Z"/>
              <path class="g" d="M41.8,20.15h0S41.81,20.15,41.8,20.15Z"/>
            </g>
            <g>
              <path class="g" d="M42.31,19.76a.1.1,0,0,1-.1.1.09.09,0,0,1-.1-.1.1.1,0,0,1,.1-.1A.11.11,0,0,1,42.31,19.76Z"/>
              <path class="h" d="M42.29,19.7a.11.11,0,0,1,0,.07.07.07,0,0,1-.09,0,.08.08,0,0,1,0-.07h0a.14.14,0,0,0,0,.06.09.09,0,0,0,.1.1.1.1,0,0,0,.1-.1A.14.14,0,0,0,42.29,19.7Z"/>
              <path class="g" d="M42.25,19.7s0,0-.06,0a.05.05,0,0,0,0,0h0a.09.09,0,0,1,.1,0S42.25,19.7,42.25,19.7Z"/>
              <path class="g" d="M42.27,19.7h0S42.28,19.7,42.27,19.7Z"/>
            </g>
            <g>
              <path class="g" d="M43,19.36a.1.1,0,0,1-.1.1.11.11,0,0,1-.1-.1.11.11,0,0,1,.1-.11A.1.1,0,0,1,43,19.36Z"/>
              <path class="h" d="M42.94,19.29a.1.1,0,0,1,0,.07.09.09,0,0,1-.1,0,.08.08,0,0,1,0-.07h0a.14.14,0,0,0,0,.07.11.11,0,0,0,.1.1.1.1,0,0,0,.1-.1A.14.14,0,0,0,42.94,19.29Z"/>
              <path class="g" d="M42.9,19.29s0,0,0,0a.09.09,0,0,0-.06,0h0a.06.06,0,0,1,.09,0S42.91,19.29,42.9,19.29Z"/>
              <path class="g" d="M42.93,19.3h0Z"/>
            </g>
            <g>
              <path class="g" d="M43.54,19.13a.09.09,0,0,1-.1.1.1.1,0,0,1,0-.2A.09.09,0,0,1,43.54,19.13Z"/>
              <path class="h" d="M43.52,19.07a.14.14,0,0,1,0,.06.1.1,0,0,1-.1,0,.13.13,0,0,1,0-.07h0a.11.11,0,0,0,0,.06.1.1,0,0,0,.1.1.09.09,0,0,0,.1-.1A.11.11,0,0,0,43.52,19.07Z"/>
              <path class="g" d="M43.48,19.06h-.06a.05.05,0,0,0-.05,0h0s.06,0,.09,0S43.48,19.07,43.48,19.06Z"/>
              <path class="g" d="M43.51,19.07h0v0h0Z"/>
            </g>
            <g>
              <path class="g" d="M44.12,19a.08.08,0,0,1-.08.07A.07.07,0,0,1,44,19a.07.07,0,0,1,.07-.08A.08.08,0,0,1,44.12,19Z"/>
              <path class="h" d="M44.1,19a.06.06,0,0,1,0,.05s0,0-.07,0A.06.06,0,0,1,44,19h0A.07.07,0,0,0,44,19a.07.07,0,0,0,.07.07.08.08,0,0,0,.08-.07A.08.08,0,0,0,44.1,19Z"/>
              <path class="g" d="M44.07,19h0s0,0,0,0h0a.08.08,0,0,1,.08,0S44.08,19,44.07,19Z"/>
              <path class="g" d="M44.09,19h0S44.1,19,44.09,19Z"/>
            </g>
            <g>
              <path class="g" d="M44.73,19a.07.07,0,0,1-.07.07.07.07,0,0,1-.08-.07.07.07,0,0,1,.08-.08A.07.07,0,0,1,44.73,19Z"/>
              <path class="h" d="M44.72,18.92a.08.08,0,0,1,0,0,.06.06,0,0,1-.07,0,.05.05,0,0,1,0-.05h0a.08.08,0,0,0,0,0,.07.07,0,0,0,.08.07.07.07,0,0,0,.07-.07A.07.07,0,0,0,44.72,18.92Z"/>
              <path class="g" d="M44.69,18.92s0,0,0,0l0,0h0s0,0,.07,0Z"/>
              <path class="g" d="M44.71,18.92h0Z"/>
            </g>
          </g>
          <g>
            <path class="g" d="M49.16,27.37c-.21-.42-.15-.57,0-1.18A26.41,26.41,0,0,0,49.37,23L49,22.87a2,2,0,0,0-1.61.3l-.28.28s.57,2.48.73,3.36c.13.55-.14.72-.28,1s-.2,1.13-.33,1.66.08.57.37.27,0-.86.28-1.05.74.76.82,1.07.35,1.66.52,1.68.08-.66.08-.66.12,0,.18-.18c.14,0,.36-.62.53-1.15a1,1,0,0,0-.13-.7C49.71,28.5,49.37,27.79,49.16,27.37Z"/>
            <g>
              <path class="g" d="M49.63,28.79a.56.56,0,0,1,.08.11s0,.08.07.13,0,.1.08.16,0,.1,0,.16a.89.89,0,0,1,0,.14.39.39,0,0,1,0,.11v0l0,0a.92.92,0,0,0,0-.09s0-.09,0-.14a1,1,0,0,1-.07-.15c0-.11-.08-.21-.1-.29A1.31,1.31,0,0,1,49.63,28.79Z"/>
              <path class="g" d="M49,26.78v.29a.86.86,0,0,0,0,.16,853622961665.57,853622961665.57,0,0,0,0,.16c0,.05,0,.1,0,.14a.59.59,0,0,1,0,.14s0-.05,0-.14a.61.61,0,0,1,0-.14,1,1,0,0,1,0-.17.88.88,0,0,1,0-.16l0-.14A.51.51,0,0,1,49,26.78Z"/>
            </g>
            <g class="i">
              <path class="g" d="M49.08,26.35a3.09,3.09,0,0,0-.14,1.42c.06.28.08-.6.43,0l-.21-.42A1.31,1.31,0,0,1,49.08,26.35Z"/>
            </g>
            <path class="m" d="M49.57,30c0,.33-.21.45-.33.15.07.85-.17.78-.32.33a7.11,7.11,0,0,0-.5-1.41c-.31-.56-.69-.55-.72-.22s-.05.77-.26.75,0-.38,0-1a1.78,1.78,0,0,1,.33-1.09A.8.8,0,0,0,48,26.8c-.09-.32-.26-.87-.4-1.29.11.51.21,1,.27,1.3.13.55-.14.72-.28,1s-.2,1.13-.33,1.66.08.57.37.27,0-.86.28-1.05.74.76.82,1.07.35,1.66.52,1.68.08-.66.08-.66.12,0,.18-.18c.13,0,.33-.56.51-1.07l0-.05C49.94,29.89,49.65,30.19,49.57,30Z"/>
          </g>
        </g>
        <g>
          <path class="g" d="M38.41,11.1c-.47-.08-.61.74-.38,1.27s.52.61.72.28a3.57,3.57,0,0,1,0-1,2,2,0,0,0,0-.24A.58.58,0,0,0,38.41,11.1Z"/>
          <path class="g" d="M47.05,10.82c-.53,0-.58.68-.58.68s0,.54-.09,1.05c.09.45.7.28,1-.3S47.58,10.86,47.05,10.82Z"/>
          <g>
            <path class="n" d="M46.68,10.06a3,3,0,0,1-1.25-2.81A2.27,2.27,0,0,1,42.89,9c1.09-.16,1.32-1.5,1.32-1.5A3.08,3.08,0,0,1,41.1,9a3.68,3.68,0,0,0,2.6-2.19,4.65,4.65,0,0,1-3.16,2,3.51,3.51,0,0,0-1.67.5A3.42,3.42,0,0,1,40.64,6.8a2.85,2.85,0,0,0-1.91,2c-.18,1.14.3,1.45.05,2.87a3.43,3.43,0,0,0,.44,2.39A4.4,4.4,0,0,0,42.81,16a7.14,7.14,0,0,0,2-1,3.81,3.81,0,0,0,1.54-2.47c.07-.51.09-1.05.09-1.05A3.44,3.44,0,0,1,46.68,10.06Z"/>
            <g>
              <path class="g" d="M40,9.68a1.13,1.13,0,0,1,1.1.47c0,.08,0,.15-.07.17s-.28-.21-.41-.28A1.06,1.06,0,0,0,40,9.93a.94.94,0,0,0-.78.68A.94.94,0,0,1,40,9.68Z"/>
              <path class="g" d="M44.28,9.43a1.16,1.16,0,0,0-1,.66c0,.08,0,.15.1.15s.24-.25.35-.34a1,1,0,0,1,.58-.21.93.93,0,0,1,.89.54A1,1,0,0,0,44.28,9.43Z"/>
              <g>
                <path class="g" d="M43.67,11.63c0,.43.3.41.61.28a7.56,7.56,0,0,0,.8-.24c.44-.2-.63-.84-.93-.83S43.64,11.21,43.67,11.63Z"/>
                <path class="g" d="M44.63,11.41s-.13-.27-.28-.31.06-.18.23.12S44.66,11.47,44.63,11.41Z"/>
                <g>
                  <path class="g" d="M43.83,11.67s0-.43.3-.55-.18-.23-.33.15S43.83,11.91,43.83,11.67Z"/>
                  <path class="o" d="M43.8,11.38A.3.3,0,0,1,44,11.1c.09,0,0,.06-.12.23S43.8,11.44,43.8,11.38Z"/>
                </g>
              </g>
              <g>
                <path class="g" d="M39.47,11.7c-.27.31.53.26.87.25s.53.19.53-.25a.8.8,0,0,0-.55-.84C40,10.83,39.76,11.37,39.47,11.7Z"/>
                <path class="g" d="M39.83,11.72s0-.43.32-.53-.17-.24-.33.14S39.82,12,39.83,11.72Z"/>
                <path class="g" d="M40.74,11.58s-.08-.29-.22-.35.08-.16.2.16S40.75,11.63,40.74,11.58Z"/>
                <path class="o" d="M39.81,11.44a.3.3,0,0,1,.18-.27c.09,0-.05.05-.12.22S39.81,11.49,39.81,11.44Z"/>
              </g>
              <path class="g" d="M41,13.9v0l.06.06.11.1.07,0,.08,0a1.5,1.5,0,0,0,.44.12H42a2.06,2.06,0,0,0,.26,0l.27,0,.12,0,.12,0,.22-.09.19-.11.15-.1.1-.09.09-.09h0a.59.59,0,0,1-.07.1l-.1.11-.14.12-.19.11-.23.1-.12,0-.13,0-.27,0h-.4l-.13,0a.85.85,0,0,1-.24-.05,1.31,1.31,0,0,1-.21-.08l-.08,0-.07-.05L41,14l0-.07,0,0h0Z"/>
              <path class="g" d="M43.43,13.53a.12.12,0,0,0,0,0l0,0,0,0s0,0,.06,0l0,0h.09l.05,0h-.13l-.06,0-.06,0,0,0,0,0a.15.15,0,0,1,0-.06Z"/>
              <path class="g" d="M42,12.26s0,0,0-.07a.83.83,0,0,0,0-.12A.58.58,0,0,0,41.9,12h0l0,.12,0,.11s0,.05,0,.07a.15.15,0,0,1,0,.07.17.17,0,0,1,0,.07v.06a.14.14,0,0,1,0,.06s0,0,0,.05l0,0,0,0h-.1a.21.21,0,0,0-.11,0l-.05.05,0,0,0,0s0,0,0,.06a.64.64,0,0,0,0,.07.25.25,0,0,0,0,.12s0,0,0,.06l0,.05a.1.1,0,0,0,.05,0l0,0,.1,0h.15l0,0h0l0,0h-.14l-.09,0,0,0,0,0,0,0s0,0,0-.05a.37.37,0,0,1,0-.11s0,0,0-.05,0,0,0,0v0l0,0,0,0a.12.12,0,0,1,.08,0h.09a.49.49,0,0,1,.14,0l.05,0h0l0,0-.06,0,0,0v0l0,0,0,0,0,0,0-.07v-.07a.19.19,0,0,0,0-.08S42,12.28,42,12.26Z"/>
              <g class="p">
                <path class="q" d="M42,12.74l-.05,0a.49.49,0,0,0-.14,0h-.09a.12.12,0,0,0-.08,0l0,0,0,0v0a.13.13,0,0,0,0,0l0,.05a.41.41,0,0,0,0,.11s0,0,0,.05l0,0a.08.08,0,0,0,0,0l0,0,.09,0H42"/>
              </g>
              <path class="r" d="M40.93,13.81s.22.45,1.13.44a1.88,1.88,0,0,0,1.38-.56s-.09-.18,0-.2.09.17.37.21c.07,0-.13.13-.25,0s-.22.57-1.35.67S40.86,13.71,40.93,13.81Z"/>
            </g>
            <path class="s" d="M45.43,7.25A2.27,2.27,0,0,1,42.89,9c1.09-.16,1.32-1.5,1.32-1.5A3.08,3.08,0,0,1,41.1,9a3.68,3.68,0,0,0,2.6-2.19,4.65,4.65,0,0,1-3.16,2,3.51,3.51,0,0,0-1.67.5A3.42,3.42,0,0,1,40.64,6.8a2.85,2.85,0,0,0-1.91,2c-.18,1.14.3,1.45.05,2.87a3.43,3.43,0,0,0,.44,2.39A4.4,4.4,0,0,0,42.81,16a7.14,7.14,0,0,0,2-1,3.81,3.81,0,0,0,1.54-2.47c.07-.51.09-1.05.09-1.05a3.44,3.44,0,0,1,.21-1.44A3,3,0,0,1,45.43,7.25Zm-.16,7.22"/>
          </g>
          <g>
            <path class="n" d="M48.47,7.25c-1.11-3.59-3.7-2.87-3.7-2.87-2.11-1.44-6.88-.26-7.4,4.12-.49,4.1,1.85,5.57,1.85,5.57a3.14,3.14,0,0,1-.47-1.42c-.2.33-.49.22-.72-.28s-.09-1.35.38-1.27a.58.58,0,0,1,.41.34c.15-1.22-.26-1.56-.09-2.63a2.85,2.85,0,0,1,1.91-2,3.42,3.42,0,0,0-1.77,2.51,3.51,3.51,0,0,1,1.67-.5,4.65,4.65,0,0,0,3.16-2A3.68,3.68,0,0,1,41.1,9a3.08,3.08,0,0,0,3.11-1.44S44,8.87,42.89,9a2.27,2.27,0,0,0,2.54-1.78,3,3,0,0,0,1.25,2.81,3.44,3.44,0,0,0-.21,1.44s.05-.72.58-.68.63.86.33,1.43-.91.75-1,.3A3.81,3.81,0,0,1,44.84,15a11.91,11.91,0,0,0,1.45-.66C49.92,11.94,48.47,7.25,48.47,7.25Z"/>
            <path class="t" d="M48.47,7.25c-1.11-3.59-3.7-2.87-3.7-2.87-2.11-1.44-6.88-.26-7.4,4.12-.49,4.1,1.85,5.57,1.85,5.57a3.14,3.14,0,0,1-.47-1.42c-.2.33-.49.22-.72-.28s-.09-1.35.38-1.27a.58.58,0,0,1,.41.34c.15-1.22-.26-1.56-.09-2.63a2.85,2.85,0,0,1,1.91-2,3.42,3.42,0,0,0-1.77,2.51,3.51,3.51,0,0,1,1.67-.5,4.65,4.65,0,0,0,3.16-2A3.68,3.68,0,0,1,41.1,9a3.08,3.08,0,0,0,3.11-1.44S44,8.87,42.89,9a2.27,2.27,0,0,0,2.54-1.78,3,3,0,0,0,1.25,2.81,3.44,3.44,0,0,0-.21,1.44s.05-.72.58-.68.63.86.33,1.43-.91.75-1,.3A3.81,3.81,0,0,1,44.84,15a11.91,11.91,0,0,0,1.45-.66C49.92,11.94,48.47,7.25,48.47,7.25Z"/>
          </g>
          <g>
            <path class="g" d="M46.48,14.18c2.16.15,2,4,2,4,1.1,3.46,3.37,2.45,3.35,2.4a1.84,1.84,0,0,0,1.7.1,2.16,2.16,0,0,1-1.7-1.4,2,2,0,0,0,2.61.8,1.86,1.86,0,0,1-1.33-.57,1.27,1.27,0,0,0,1.21.1c-.92.17-1-1.05-1-1.05a2.8,2.8,0,0,0-1.15-2.69,3.14,3.14,0,0,1-1-1.86l0,.05c1,1.36,1.82.64,1.82.64-.72.26-1.49-.52-2.32-4.11s-2.17-3.33-2.17-3.33,1.45,4.69-2.18,7.11"/>
            <g>
              <path class="g" d="M51.65,16.25a.45.45,0,0,1,.12.05l.13.07a1,1,0,0,1,.16.1l.18.13.18.17.18.2c.06.06.11.14.17.21l.15.24.12.23.09.24c0,.07,0,.15.07.21a1.62,1.62,0,0,1,0,.19l0,.14a1.13,1.13,0,0,0,0,.12h0l0-.12a1.27,1.27,0,0,1,0-.14l-.06-.17a1.8,1.8,0,0,0-.08-.21L53,17.68l-.12-.23-.13-.24c-.06-.07-.11-.15-.16-.22l-.18-.19c0-.07-.12-.12-.17-.18L52,16.49a.72.72,0,0,0-.15-.11l-.13-.07-.11-.06Z"/>
              <path class="g" d="M50.64,12.63a2.24,2.24,0,0,0,0,.28c0,.08,0,.17.07.27a1,1,0,0,1,.05.16,1,1,0,0,0,.07.15l.06.15.08.15,0,.06,0,.07.07.11.06.1.05.07,0,.06h0l-.06-.06-.06-.06a.71.71,0,0,1-.07-.09A1,1,0,0,1,51,14L51,13.82a1,1,0,0,1-.07-.15,1,1,0,0,1-.06-.16l-.06-.16s0-.1,0-.16,0-.1,0-.14,0-.1,0-.14a1.68,1.68,0,0,1,0-.28Z"/>
            </g>
          </g>
        </g>
        <path class="g" d="M45.72,23.92s1.9,2.58,2,2.94"/>
      </g>
      <path class="u" d="M16.16,41.38l-.07,15.47s-4.56-.09-4.59-.65S15.34,41.63,16.16,41.38Z"/>
      <path class="u" d="M39.25,26.32s1.91-2.67,4.33-2.69-4.49,2.57-4.39,2.74"/>
      <path class="u" d="M38,23.49s-1.12.44.56,2.5C38.59,26,38.36,23.55,38,23.49Z"/>
    </g>
  </g>
</svg>
