<svg xmlns="http://www.w3.org/2000/svg" width="35" height="35" viewBox="0 0 35 35">
  <defs>
    <style>
      .a {
        fill: #fff;
      }

      .b {
        fill: #eaa3bb;
        fill-rule: evenodd;
      }
    </style>
  </defs>
  <title>Безымянный-4</title>
  <path class="a" d="M17.59.4A17.09,17.09,0,0,1,29.68,29.58,17.09,17.09,0,1,1,5.51,5.41,17,17,0,0,1,17.59.4Zm11.15,6A15.78,15.78,0,1,0,33.35,17.5,15.72,15.72,0,0,0,28.74,6.36Z"/>
  <path class="b" d="M13.22,17.5a4.38,4.38,0,1,1,4.37,4.38,4.39,4.39,0,0,1-4.37-4.38Zm8.9-8.57h-9A4.06,4.06,0,0,0,9,13v9a4.07,4.07,0,0,0,4.05,4.05h9A4.07,4.07,0,0,0,26.17,22V13a4.06,4.06,0,0,0-4.05-4.05Zm-9,1h9a3.05,3.05,0,0,1,3,3v9a3,3,0,0,1-3,3h-9a3,3,0,0,1-3-3V13a3,3,0,0,1,3-3ZM23,11.22a.89.89,0,1,0,.89.89.89.89,0,0,0-.89-.89Zm.1,6.28A5.53,5.53,0,1,0,17.59,23a5.53,5.53,0,0,0,5.53-5.52Z"/>
</svg>
