<svg xmlns="http://www.w3.org/2000/svg" width="190" height="11" viewBox="0 0 190 11">
  <defs>
    <style>
      .a {
        fill: #9f9ea2;
      }

      .b {
        fill: none;
        stroke: #9f9ea2;
        stroke-linecap: round;
        stroke-linejoin: round;
        stroke-width: 1.08px;
      }
    </style>
  </defs>
  <title>hart_decor</title>
  <g>
    <path class="a" d="M2.11,5.29C5.56,5,9,4.89,12.45,4.81s6.9,0,10.34,0c6.9.15,13.79.08,20.68.19s13.79.4,20.68.13C67.6,5,71,5,74.49,5s6.89.11,10.34.28a.51.51,0,0,1,0,1c-3.45.17-6.89.26-10.34.28s-6.89,0-10.34-.14c-6.89-.27-13.78,0-20.68.13s-13.78,0-20.68.19c-3.44.07-6.89.12-10.34,0S5.56,6.59,2.11,6.3a.51.51,0,0,1-.46-.55A.5.5,0,0,1,2.11,5.29Z"/>
    <path class="a" d="M188.66,6.3c-3.45.29-6.9.4-10.34.48s-6.89,0-10.34,0c-6.89-.15-13.79-.08-20.68-.19s-13.79-.4-20.68-.13c-3.45.12-6.89.2-10.34.14s-6.89-.11-10.34-.28a.51.51,0,0,1,0-1c3.45-.17,6.89-.26,10.34-.28s6.89,0,10.34.14c6.89.27,13.79,0,20.68-.13S161.09,5,168,4.83c3.45-.07,6.89-.12,10.34,0s6.89.2,10.34.48a.51.51,0,0,1,0,1Z"/>
    <path class="b" d="M96.47,6.8C96.75,5.65,95-.36,91.38,1.21s1.15,9.1,3.87,9.1S102.84,2.72,99.12,1,94,5.75,94.32,6.8A1.08,1.08,0,0,0,96.47,6.8Z"/>
  </g>
</svg>
