<svg xmlns="http://www.w3.org/2000/svg" width="345" height="86" viewBox="0 0 345 86">
  <defs>
    <style>
      .a {
        fill: #eaa3bb;
      }

      .b {
        fill: #d29bb2;
      }

      .c {
        fill: #494949;
      }
    </style>
  </defs>
  <title>Безымянный-3</title>
  <g>
    <path class="a" d="M125.84,47.75a44.25,44.25,0,0,0-.16-7.46,27.78,27.78,0,0,0-.57-4.45,1.45,1.45,0,0,0-.09-.22,6.5,6.5,0,0,0-.17,1.44,83.38,83.38,0,0,1-.35,10.24c-.16,1.08-.26,2.17-.4,3.25s-.34,2.14-.41,3.21a27.74,27.74,0,0,0,.12,6.31c.18,1,.29,2,.45,3,.11.64.25,1.26.4,1.89.31,1.27.63,2.53,1,3.8.06.24.16.46.24.7l1.26,4.1c.19.62.37,1.24.57,1.91a1.53,1.53,0,0,0,.25-.06c.58-.29,1.14-.6,1.73-.86.26-.11.3-.24.21-.48-.21-.53-.43-1.07-.62-1.61-.41-1.12-.8-2.25-1.19-3.37-.25-.75-.52-1.49-.75-2.24-.3-1-.6-2-.86-3.06a33,33,0,0,1-.72-3.39,47.13,47.13,0,0,1-.42-4.74,28.29,28.29,0,0,1,.18-3.32C125.6,50.83,125.78,49.29,125.84,47.75Z"/>
    <path class="a" d="M118.33,48.68a1.87,1.87,0,0,1-.08.32c-.33.75-.64,1.49-1,2.23a16.49,16.49,0,0,1-1,1.86c-.57.9-1.19,1.77-1.82,2.64-.44.61-.91,1.21-1.39,1.8s-1,1.15-1.44,1.74-.9,1.18-1.34,1.77-1,1.24-1.4,1.89-1,1.53-1.44,2.33a27.7,27.7,0,0,0-1.34,2.87,13.71,13.71,0,0,0-.57,2.18c-.13.6-.2,1.22-.31,1.94.75,0,1.35,0,2,0,.32,0,.41-.14.4-.44a11.45,11.45,0,0,1,.93-4.23,9.51,9.51,0,0,1,.46-1q.48-.9,1-1.8c.33-.57.66-1.14,1-1.69s.94-1.33,1.42-2l1-1.41c.48-.69,1-1.39,1.43-2.09.3-.43.59-.86.86-1.3.5-.8,1-1.6,1.47-2.41a10.09,10.09,0,0,0,.56-1.2,26.09,26.09,0,0,0,1-2.54,16.22,16.22,0,0,0,.41-2.43c.09-.7.1-1.41.14-2.12l-.1,0a7.21,7.21,0,0,0-.3.77C118.68,47.15,118.51,47.91,118.33,48.68Z"/>
    <path class="a" d="M133,55.73c.17,1.39.37,2.78.56,4.16,0,.11,0,.23.06.34.38,1.25.76,2.51,1.15,3.77.14.46.28.92.45,1.37q.54,1.39,1.11,2.76c.22.52.47,1,.73,1.58l1.13-.67c.2-.11.28-.23.16-.47s-.34-.73-.5-1.1c-.49-1.09-1-2.18-1.45-3.29s-.84-2.18-1.2-3.3a26.59,26.59,0,0,1-.73-2.79,27.37,27.37,0,0,1-.42-2.86c-.17-1.89-.3-3.79-.45-5.68-.13-1.72-.23-3.44-.43-5.15a17,17,0,0,0-.59-2.31l-.19,0a6.58,6.58,0,0,1,.18.86c.07,1.15.16,2.3.18,3.46A92.48,92.48,0,0,0,133,55.73Z"/>
    <path class="a" d="M134.43,3.14h0a.76.76,0,0,0,1.15,0l.42.17c.49.2,1,.42,1.46.63l.09-.05a2.54,2.54,0,0,1,0-2.58l-.15,0-1.76,1a.19.19,0,0,1-.14-.05c-.39-.47-.7-.23-1,.1l-1.78-1-.12.09a2.57,2.57,0,0,1,0,2.44C133.21,3.67,133.82,3.42,134.43,3.14Z"/>
    <path class="a" d="M128.68,24.13c.11.53.23,1.05.34,1.58l.16,0c-.07-.65-.14-1.31-.23-2a.3.3,0,0,0-.16-.21.5.5,0,0,0-.28.12,6.33,6.33,0,0,0-.57.59,1.14,1.14,0,0,0-.28.53,4.12,4.12,0,0,0,.06.93.28.28,0,0,0,.13.21l1.14.5c-.12-.63-1-.17-.93-1C128.11,24.84,127.94,24.37,128.68,24.13Z"/>
    <path class="b" d="M135.12,6.3c-.25-.06-.43.11-.4.4s.07.45.54.43c.07-.1.27-.27.28-.45S135.29,6.34,135.12,6.3Z"/>
    <path class="b" d="M135,9.45a.7.7,0,0,0-.25.52c0,.23.11.44.36.37s.41-.24.41-.36a.72.72,0,0,0-.32-.53A.18.18,0,0,0,135,9.45Z"/>
    <path class="a" d="M90,69.55c.67-.27,1.35-.51,2-.79l2.66-1.13c.36-.15.73-.27,1.08-.43,1-.49,2-1,3-1.48a19.85,19.85,0,0,0,1.74-1,22.65,22.65,0,0,0,2-1.4c.73-.57,1.44-1.17,2.12-1.8s1.2-1.15,1.77-1.75,1.18-1.28,1.75-1.94.89-1.08,1.31-1.64c.63-.82,1.26-1.63,1.84-2.48.48-.69.91-1.41,1.33-2.14.51-.88,1-1.78,1.46-2.68a12.86,12.86,0,0,0,.75-1.65A33.34,33.34,0,0,0,116,43.67c.34-1.46.52-3,.77-4.42.13-.79.3-1.57.42-2.36a11,11,0,0,1,1.22-3.37,13.76,13.76,0,0,1,2.16-2.87c.68-.77,1.35-1.54,2-2.35.42-.55.43-.61,1.07-.38s1.18.46,1.78.65c1,.34,2.09.67,3.15,1,.34.09.33.23.24.5a10.79,10.79,0,0,0-.34,1.27c-.07.43-.08.87-.11,1.31-.2-.19-.26-.45-.42-.61s-.13-.38,0-.62c.16-.46.26-.95.38-1.43l-.11,0c-.17.46-.33.93-.5,1.39,0,.05,0,.13-.06.14-.51.16-.28.54-.31.87l.3,0c.38.31.44.82.94,1.11,0-.6,0-1.09.11-1.57s.18-1.18.27-1.77c0-.23.18-.27.4-.26.49,0,1,0,1.54,0,0,.09.09.27.16.43.46,1,.95,1.9,1.36,2.88a31.33,31.33,0,0,1,1.2,3.23c.44,1.49.79,3,1.15,4.53.19.78.3,1.59.45,2.39s.27,1.59.4,2.39.23,1.38.34,2.07c.15.85.26,1.72.45,2.56.24,1.1.53,2.19.83,3.28a17.56,17.56,0,0,0,1.58,4c.35.63.68,1.28,1.07,1.9a7.59,7.59,0,0,0,.82.93c0-.33-.07-.57-.09-.82-.13-1.68-.27-3.36-.41-5-.11-1.42-.23-2.85-.36-4.28s-.29-3.13-.39-4.7c-.09-1.33-.17-2.67-.13-4,0-1.68.22-3.36.32-5,.14-2.18.25-4.35.39-6.53a3.09,3.09,0,0,1,.18-1.15c.45-.95,1-1.86,1.5-2.79.31-.56.6-1.14.91-1.71.63-1.17,1.28-2.33,1.92-3.5.17-.31.32-.64.5-.95.28-.53.77-1,.41-1.69a.28.28,0,0,1,0-.09c-.14-1.24-.28-2.48-.41-3.72s-.3-2.76-.44-4.14c-.18-1.77-.35-3.55-.55-5.32a.88.88,0,0,0-.37-.54c-.31-.22-.67-.36-1-.56-.56-.34-1.11-.69-1.66-1s-1.19-.75-1.8-1.1a2.81,2.81,0,0,0-.58-.19,2.52,2.52,0,0,0-.14.54,12,12,0,0,1-.25,3.26,14.35,14.35,0,0,0-.4,1.75c-.29,1.36-.57,2.73-.85,4.09-.12.55-.23,1.09-.35,1.64-.29,1.41-.58,2.82-.88,4.23l-.29,1.4c-.17-.59-.32-1-.43-1.49-.16-.67-.28-1.34-.43-2-.25-1.09-.5-2.17-.76-3.26s-.51-2.16-.75-3.25-.42-2.08-.65-3.12a1.65,1.65,0,0,0-.28-.6c-.42-.55-1.14-.93-1-1.8,0,0,0,0,0-.05-.63.29-1.25.56-1.86.87a.65.65,0,0,0-.34.78,6.41,6.41,0,0,1,0,2.58,1.44,1.44,0,0,1-.22.47,2,2,0,0,1-1.7.76h-.7c.33.12.59.24.87.31.8.22.8.22.9,1.06a.45.45,0,0,0,0,.12,6.21,6.21,0,0,0,.57,1.72c.62.87,1.43,1.59,2.12,2.42a2.89,2.89,0,0,1,.83,2.63,17.15,17.15,0,0,1-.73,2.16c-.31.79-.73,1.55-1,2.35a9.68,9.68,0,0,0-.42,1.92,11.62,11.62,0,0,0,.36,3.8,10.68,10.68,0,0,0,.36,1.15l.89-.39c1-.41,2-.79,2.92-1.25a9.47,9.47,0,0,0,1.5-1c.45-.33.4-.78,0-1.11a5.27,5.27,0,0,1-.87-.83c-.19-.23-.32-.23-.55-.07a1.85,1.85,0,0,1-.65.22.34.34,0,0,1-.3-.16c0-.07.05-.22.12-.31a8.69,8.69,0,0,0,.67-.83.81.81,0,0,0,.1-.64c0-.13-.34-.21-.53-.24a.68.68,0,0,0-.48.1,10.46,10.46,0,0,0-.84.65l-.7.54a4.51,4.51,0,0,0-.06-.6c0-.09-.12-.22-.19-.22-.33,0-.71,0-.88.36a2.56,2.56,0,0,0-.32,1.88,8.21,8.21,0,0,1,.16,1.32,4.91,4.91,0,0,1-.42-2.41,1.52,1.52,0,0,1,.82-1.37c.54-.31,1-.19,1.21.31a2.4,2.4,0,0,0,.26-.18c.33-.26.64-.56,1-.79.51-.35.7-.24,1.1.09a1.14,1.14,0,0,1,.34,1.21,2.51,2.51,0,0,1-.19.35c.23.14.52.22.61.39a2.24,2.24,0,0,0,.94.89,1,1,0,0,1,.16,1.54,6.35,6.35,0,0,1-1.53,1.08c-1.29.53-2.62.94-3.94,1.41a2,2,0,0,0-.38.26l-.86-.38c0-.31.06-.64.1-1a9.16,9.16,0,0,0-1.11.44,2.79,2.79,0,0,1-1.58.28,6.63,6.63,0,0,1-2.38-1,1.05,1.05,0,0,1-.57-1.16,6.15,6.15,0,0,0-.13-2.05,16.14,16.14,0,0,0-.91-2.43c-.42-1-.88-1.91-1.32-2.85l-.13,0c.1.48.17,1,.31,1.45.35,1.16.74,2.3,1.11,3.45.06.18.06.39.12.57a4.5,4.5,0,0,1,.09,1.91,14.43,14.43,0,0,0-1.43-1,.79.79,0,0,1-.43-.73c-.07-1.13-.15-2.27-.23-3.39-.18.08-.2.18-.13,1.7,0,.63.1,1.26.15,1.88l-.86-.12c1,.64,1.93,1.25,2.87,1.92a13.16,13.16,0,0,0,2.36,1.55,6.42,6.42,0,0,0,1.08.47,2.43,2.43,0,0,0,2-.13c.24-.15.51-.26.84-.43l-.2.73a12.63,12.63,0,0,1,1.39.87c.17.13.19.44.28.67a1.53,1.53,0,0,1-.64.15,11.78,11.78,0,0,1-1.52-.41c-.77-.24-1.52-.5-2.29-.75-1.38-.46-2.76-.89-4.13-1.38a13.49,13.49,0,0,1-1.72-.81c-.21-.11-.48-.28-.54-.47a15.6,15.6,0,0,1-.53-2.44,74.91,74.91,0,0,1-.17-8.74,1.34,1.34,0,0,1,.37-1.11l.82-.76c.61-.44,1.23-.87,1.83-1.32.23-.17,1.18-.73,1.4-.92a1.23,1.23,0,0,0-.85.16c-1.39,1-1.76,1.31-2.65,2,0,0-1,.54-1.12,1a13.4,13.4,0,0,0-.25,2.09c0,2,.08,3.93.16,5.9,0,1.12.33,2.35.46,3.46a2,2,0,0,0,.42.91,4,4,0,0,0,1.93,1.14c.46.19.54.32.24.68-.44.53-.9,1-1.37,1.53-.76.84-1.54,1.67-2.31,2.51a9.65,9.65,0,0,0-1.72,3.06,18,18,0,0,0-.82,2.8c-.32,1.53-.57,3.07-.86,4.61-.08.45-.22.89-.32,1.33a18.7,18.7,0,0,1-1.71,4.26c-.32.61-.59,1.25-1,1.82-.72,1.13-1.48,2.24-2.26,3.33-.66.9-1.34,1.79-2.06,2.65a32.69,32.69,0,0,1-2.46,2.66,24.53,24.53,0,0,1-4.2,3.47c-1.12.65-2.23,1.32-3.36,2-.31.18-.65.3-1,.45-.7.33-1.38.68-2.09,1s-1.62.64-2.44,1L88,67.68c-.44.17-.89.33-1.31.53C83.6,69.66,78.55,70,76.83,70c-19.76.45-74,2.56-74,2.56s63.54.73,71.35.73,11.55-1.82,13-2.48C88.1,70.37,89.07,70,90,69.55ZM139.82,18.1c.18-1.45.5-2.88.76-4.32.12-.66.26-1.32.39-2,.07-.31.15-.61.22-.92h.13v1.89c0,1.39.05,2.78,0,4.18a5.59,5.59,0,0,1-.33,1.43c-.13.43-.3.83-.46,1.25a21.19,21.19,0,0,1-.87,2.13,2,2,0,0,1,0-.24C139.69,20.38,139.67,19.23,139.82,18.1ZM133.64,24c.39,0,.68.32,1,.4h0s0,0,0,0a1.59,1.59,0,0,1,.15.56v.13l0,.13a.51.51,0,0,1-.1.21.82.82,0,0,1-.41.27l-.28.08-.43.12-.26.08a2.62,2.62,0,0,1,.06-.43c.09-.24.21-.47.29-.72a.3.3,0,0,0,0-.1.59.59,0,0,0,0-.29c0-.11-.1-.2-.33-.23,0,0,0-.09-.1-.18A.91.91,0,0,1,133.64,24ZM132.78,22a.54.54,0,0,1,.18,0l.15,0,0,0h0a.21.21,0,0,1,0,.13.24.24,0,0,1-.06.11,1.27,1.27,0,0,1-.13.19l-.15.17-.15.16-.18.18C132.27,22.43,132.39,22.07,132.78,22Zm-1.56,2.14c0-.1,0-.2.05-.3a3.44,3.44,0,0,1,.15-.55.41.41,0,0,1,.3-.16.22.22,0,0,1,.15.11.27.27,0,0,1,.06.1,2.9,2.9,0,0,1,.12.42c0,.1,0,.21.07.31a1.17,1.17,0,0,0,.1.26.37.37,0,0,0,.4.17.35.35,0,0,1,.18,0,.09.09,0,0,1,.06,0,.3.3,0,0,1,0,.35l-.1.27c-.08.17-.17.34-.26.5a2,2,0,0,1-.16.24,2.2,2.2,0,0,1-.24.28,2.09,2.09,0,0,1-.28.24,3.62,3.62,0,0,1-.41.27,6.9,6.9,0,0,1-.67.32.29.29,0,0,1-.1,0c-.1,0-.2,0-.3,0a6.61,6.61,0,0,0,1.92-1.68l.21-.31-.13-.06c-.63-.3-.51-.95-.71-1.39a.12.12,0,0,0-.09,0c-.18.09-.08.39-.14.57a.15.15,0,0,1-.06.09l0,0h-.07s-.05,0-.09,0A2.23,2.23,0,0,0,131.22,24.17Zm0,.68.13.12.11.1.15.13,0,0-.14.08a.46.46,0,0,1-.26.11h-.09l-.09-.05-.18-.12Zm-1-2,0-.05a.72.72,0,0,1,.33-.19,2.12,2.12,0,0,1,.36.54.08.08,0,0,1,0,0,1.29,1.29,0,0,1,0,.19c-.06.24-.11.48-.17.77a1.73,1.73,0,0,1-.52-.85c0-.06,0-.12,0-.18A.57.57,0,0,1,130.27,22.87Z"/>
    <path class="a" d="M343.07,69.55c-34.63-.29-69.25-.45-103.88-.69-20-.15-39.94-.19-59.92.32-8.67.22-17.46.22-26.11.8-8.44.56-14.33,7.31-21.86,10.42-4.46,1.84-8.3,2.41-12.82.28-3.47-1.64-6.19-4-10.26-3.71-4.45.27-8.29,2.06-12.9,1.4-3.6-.51-6.58-2.23-10-3.4l-.06.1A23.93,23.93,0,0,0,95.57,80c4.53.87,8.67-.9,13.09-.84,3.67,0,6,2.57,9.21,4.06,4.07,1.92,7.73,1.77,11.9.17,6.95-2.68,11.82-8.47,18.58-11.29,6.33-2.63,14.71-.9,21.39-.74,41.25,1,82.53-.14,123.78-.72,16.52-.23,33-.53,49.56-.8Z"/>
    <path class="c" d="M46.63,31.26a1.08,1.08,0,0,0,.25-.71c0-.17-.11-.27-.23-.3a.5.5,0,0,0-.4.07,1.09,1.09,0,0,0-.39.38,11.66,11.66,0,0,1-2.74,3.46,34.85,34.85,0,0,1-3.85,2.94A17.67,17.67,0,0,0,38,29a14.83,14.83,0,0,0-4.14-5.46,16.41,16.41,0,0,0-6-3,21.87,21.87,0,0,0-6.88-.79,23.43,23.43,0,0,0-6.82,1.32,19.49,19.49,0,0,0-5.87,3.22,14,14,0,0,0-3.91,5,12.36,12.36,0,0,0-1,6.57,8,8,0,0,0,1.24,3.71,10,10,0,0,0,2.67,2.69A19.88,19.88,0,0,0,5.77,48.7a17.4,17.4,0,0,0,.6,5.76A12.09,12.09,0,0,0,8.71,58.9a8.19,8.19,0,0,0,3.76,2.56,13.31,13.31,0,0,0,5.4.61,17,17,0,0,0,5.28-1.37,23.06,23.06,0,0,0,4.9-2.92,30.94,30.94,0,0,0,4.26-4,29.8,29.8,0,0,0,3.38-4.65,24.33,24.33,0,0,0,2.21-4.84c.3-1,.55-1.91.76-2.79a18.51,18.51,0,0,0,.4-2.64,22,22,0,0,0,4.29-3.46A26.22,26.22,0,0,0,46.63,31.26Zm-11.12,11c-.17.63-.36,1.23-.56,1.8A28.91,28.91,0,0,1,32.69,49a33.12,33.12,0,0,1-3.12,4.54,26.2,26.2,0,0,1-3.76,3.76,17.41,17.41,0,0,1-4.23,2.58,12,12,0,0,1-4.47,1,9.43,9.43,0,0,1-4.49-1.06A6.5,6.5,0,0,1,9.8,57.17a10.67,10.67,0,0,1-1.27-4,16.57,16.57,0,0,1,.13-4.69A24.56,24.56,0,0,1,10,43.65a19.19,19.19,0,0,0,5.68,1.27,33.68,33.68,0,0,0,6.63-.16,39.26,39.26,0,0,0,6.93-1.49,38.23,38.23,0,0,0,6.64-2.77A11.18,11.18,0,0,1,35.51,42.3Zm.66-3.58a38.36,38.36,0,0,1-6.62,2.8,42.06,42.06,0,0,1-7,1.57,30,30,0,0,1-6.52.18,14.83,14.83,0,0,1-5.33-1.4A29.59,29.59,0,0,1,12.24,39a41.13,41.13,0,0,1,2.28-3.47,38,38,0,0,1,2.84-3.46,23.61,23.61,0,0,1,3.2-2.89,12.24,12.24,0,0,1,3.35-1.78,5.26,5.26,0,0,1,3.28,0,.63.63,0,0,0,.73-.12c.15-.19,0-.38-.33-.59a6.79,6.79,0,0,0-3.91-.89,10.65,10.65,0,0,0-3.91,1.17A17.23,17.23,0,0,0,16,29.56a34.17,34.17,0,0,0-3.32,3.5A35.18,35.18,0,0,0,10,36.79a36.7,36.7,0,0,0-1.88,3.35,5.82,5.82,0,0,1-2-3.85,11.81,11.81,0,0,1,.61-6.2A13.44,13.44,0,0,1,10,25.27a16.3,16.3,0,0,1,5.08-3.22,18.38,18.38,0,0,1,6-1.37,16.78,16.78,0,0,1,6,.73,12.52,12.52,0,0,1,5.1,3.08,14,14,0,0,1,3.35,5.68A21.26,21.26,0,0,1,36.17,38.72Z"/>
    <path class="c" d="M100.48,49.28c-.27.54-.66,1.3-1.17,2.26s-1.07,1.92-1.7,2.87a17.57,17.57,0,0,1-1.9,2.43,2.45,2.45,0,0,1-1.78,1c-.74,0-.91-1-.51-3.05a15.82,15.82,0,0,1,.87-2.64c.4-1,.85-1.93,1.34-2.86s1-1.76,1.42-2.49a9.47,9.47,0,0,1,1.09-1.5,2.67,2.67,0,0,1-1.09,0,6.48,6.48,0,0,0-1-.18,2,2,0,0,0-1.9.76,16.86,16.86,0,0,0-1.55,2.49c-.68,1.25-1.38,2.48-2.11,3.68A29.22,29.22,0,0,1,88,55.42a8.74,8.74,0,0,1-1.82,1.65,3.13,3.13,0,0,1-1.6.59,1.2,1.2,0,0,1-1.07-.61,3,3,0,0,1-.18-1.93,8.47,8.47,0,0,1,.38-1.5c.19-.52.39-1,.61-1.52s.43-.92.64-1.3.35-.64.45-.81a27.49,27.49,0,0,1,3.2-4.29,15,15,0,0,1,3.55-3,3.71,3.71,0,0,1,2.67-.45A2.23,2.23,0,0,1,96.52,44a.74.74,0,0,0,.89-.4.94.94,0,0,0-.33-1.07,4.63,4.63,0,0,0-2.62-1.47,7.35,7.35,0,0,0-3.19.1A11.69,11.69,0,0,0,88,42.53a10.27,10.27,0,0,0-2.72,2.34,19.45,19.45,0,0,0-2.92,4.49,18.84,18.84,0,0,0-.81,2.17l0,0a31.34,31.34,0,0,1-1.73,2.91,16.06,16.06,0,0,1-2,2.52,3,3,0,0,1-2,1.06.92.92,0,0,1-.81-.48,3.22,3.22,0,0,1,0-2.06A8.79,8.79,0,0,1,75.38,54c.22-.61.48-1.26.79-2s.63-1.42,1-2.16.71-1.47,1.09-2.18q1.26-2.49,2.79-5.23a3.11,3.11,0,0,0-1.85.2,17.26,17.26,0,0,0-2.57,1.14,28,28,0,0,0-2.71,1.68,25.48,25.48,0,0,0-2.26,1.75,25.16,25.16,0,0,0-2.31,2.31c-.76.86-1.4,1.62-1.9,2.26.43-.92.93-1.89,1.49-2.92s1.12-2,1.68-2.92a27,27,0,0,1,1.62-2.38,4.88,4.88,0,0,1,1.35-1.32,2.66,2.66,0,0,1-1.09,0c-.36-.08-.71-.14-1-.18a2.47,2.47,0,0,0-1.93.66,11,11,0,0,0-1.68,2.54c-.37.64-.72,1.28-1,1.9s-.63,1.28-.94,2a1.29,1.29,0,0,0-.2.3,17.38,17.38,0,0,1-1.5,2.52,20,20,0,0,1-2.49,2.91,15.89,15.89,0,0,1-3.12,2.41,6.51,6.51,0,0,1-3.35,1,2,2,0,0,1-1.8-.83,4.16,4.16,0,0,1-.61-2,8.87,8.87,0,0,1,.15-2.28,9.46,9.46,0,0,1,.54-1.88,6.45,6.45,0,0,0,1.32-.18,15.65,15.65,0,0,0,1.72-.48,13.61,13.61,0,0,0,1.75-.71A9.25,9.25,0,0,0,59.72,49a11.59,11.59,0,0,0,2.08-2,7.79,7.79,0,0,0,1.27-2.11,3.79,3.79,0,0,0,.28-1.9,2.13,2.13,0,0,0-.84-1.42A3.25,3.25,0,0,0,60.56,41a5.93,5.93,0,0,0-2.26.48A10,10,0,0,0,56,42.89a14.59,14.59,0,0,0-2.13,2,16.57,16.57,0,0,0-1.57,2.18A17.71,17.71,0,0,0,51,49.51c-.07.15-.1.31-.16.47l-.3.6c-.25.49-.54,1-.86,1.59S49,53.34,48.63,54s-.79,1.22-1.19,1.83a5.71,5.71,0,0,1-2.16,1.95,2.38,2.38,0,0,1-2,.15A2.33,2.33,0,0,1,42,56.18a7.52,7.52,0,0,1,.2-3.6c.17-.64.36-1.25.56-1.83s.37-1.08.51-1.52a34.6,34.6,0,0,0,6.19-7.33A68,68,0,0,0,53.68,34a10,10,0,0,0,1.19-4.72c-.12-1.11-.51-1.78-1.19-2a3.07,3.07,0,0,0-2.54.66,9.88,9.88,0,0,0-2.89,3.27c-.74,1.22-1.49,2.57-2.23,4.06s-1.46,3-2.14,4.6S42.58,43,42,44.61s-1.07,3.1-1.48,4.52c-.13.51-.3,1.11-.5,1.8a17.93,17.93,0,0,0-.51,2.16,13.8,13.8,0,0,0-.23,2.18,5,5,0,0,0,.31,1.93,2.91,2.91,0,0,0,1.11,1.39,3.88,3.88,0,0,0,2.21.54A5.43,5.43,0,0,0,46.32,58a11.88,11.88,0,0,0,2.56-2.64A20,20,0,0,0,50,53.58c0,.27-.1.57-.1.83A4.61,4.61,0,0,0,51.42,58a5.19,5.19,0,0,0,3.38,1.19,8.54,8.54,0,0,0,4.57-1.29,17.07,17.07,0,0,0,3.7-3.13c-.37.78-.74,1.54-1.12,2.29s-.74,1.5-1.11,2.28a1.46,1.46,0,0,1,.78-.25c.26,0,.57,0,.94-.05a6,6,0,0,0,1.22-.1,1.21,1.21,0,0,0,.71-.66,41.47,41.47,0,0,1,3.94-6.55,25.18,25.18,0,0,1,3.12-3.5,13.27,13.27,0,0,1,2.38-1.88A2.17,2.17,0,0,1,75.28,46c.28.07.41.29.38.66A3.3,3.3,0,0,1,75.15,48c-.71,1.15-1.3,2.16-1.78,3a12,12,0,0,0-1,2.31,7.87,7.87,0,0,0-.46,2.92A3.67,3.67,0,0,0,72.49,58a2.46,2.46,0,0,0,1.19.94,4.28,4.28,0,0,0,1.37.25,4.17,4.17,0,0,0,2.56-.91,12,12,0,0,0,2.21-2.24c.48-.65.87-1.36,1.29-2a7.56,7.56,0,0,0,.16,2.61,3.57,3.57,0,0,0,1.24,2,2.56,2.56,0,0,0,2.11.38,5.82,5.82,0,0,0,2.71-1.68,16.32,16.32,0,0,0,2.08-2.41c.65-.9,1.17-1.68,1.58-2.36a10.13,10.13,0,0,0-.49,3.27,4.35,4.35,0,0,0,.54,2,2.37,2.37,0,0,0,1.16,1,3,3,0,0,0,1.32.23A4,4,0,0,0,95.78,58a14.74,14.74,0,0,0,2.16-2.52,30.42,30.42,0,0,0,1.85-3c.56-1,1-2,1.4-2.74.24-.51.24-.82,0-.92S100.72,48.84,100.48,49.28ZM55,48.21a19.06,19.06,0,0,1,1.85-2.63,17,17,0,0,1,2.64-2.67,3.57,3.57,0,0,1,1.67-.81.68.68,0,0,1,.76.58,3,3,0,0,1-.1,1.53,7.41,7.41,0,0,1-.94,2,8.16,8.16,0,0,1-1.7,1.93,9.63,9.63,0,0,1-1.49,1,11.08,11.08,0,0,1-1.55.71,9.2,9.2,0,0,1-1.37.41,5.53,5.53,0,0,1-1,.13C54.07,49.87,54.47,49.16,55,48.21Zm-9.78-4.44c.65-1.54,1.34-3.11,2.09-4.72s1.5-3.13,2.28-4.59A36.4,36.4,0,0,1,51.7,31c.68-1,1.17-1.53,1.47-1.63s.49.05.54.43a4.56,4.56,0,0,1-.18,1.6,13,13,0,0,1-.61,1.88c-.51,1.19-1.1,2.43-1.78,3.73s-1.42,2.59-2.23,3.86-1.66,2.49-2.54,3.65a29.39,29.39,0,0,1-2.69,3.13C44.09,46.59,44.61,45.31,45.25,43.77Z"/>
    <path class="c" d="M202.45,46.74a6.33,6.33,0,0,0-1.5-2.59,13.53,13.53,0,0,0-2.46-2,18.31,18.31,0,0,0-2.87-1.52c-1-.43-1.92-.77-2.77-1a22.64,22.64,0,0,0,3.08-.36,17.31,17.31,0,0,0,3.24-.94,13,13,0,0,0,3-1.62,8.21,8.21,0,0,0,2.16-2.36,6.74,6.74,0,0,0,1-4.14,6.28,6.28,0,0,0-1.7-3.55,13.48,13.48,0,0,0-4-2.85,32.28,32.28,0,0,0-5.79-2.1,2.57,2.57,0,0,1,.53-.61,7.8,7.8,0,0,1,.94-.76c.61-.37.88-.68.81-.92s-.5-.18-1.32.16a8,8,0,0,0-1.39.71,11.56,11.56,0,0,0-1.4,1,52,52,0,0,0-9.57-1.09,63,63,0,0,0-10.43.64,29.43,29.43,0,0,0-7.84,2.18,21.25,21.25,0,0,0-5.61,3.55,13.62,13.62,0,0,0-3.3,4.32,9.17,9.17,0,0,0-1,4.36A6.59,6.59,0,0,0,155.73,39a8.29,8.29,0,0,0,3.93,2.64,7.5,7.5,0,0,0,3.45.4,8.65,8.65,0,0,0,3.3-1.06A8.47,8.47,0,0,0,169,38.65a7.35,7.35,0,0,0,1.4-3.33v0a.72.72,0,0,0-.18-.56.54.54,0,0,0-.35-.15.81.81,0,0,0-.36.1q-.18.11-.18.21a3.23,3.23,0,0,1-.48,1.75,7.59,7.59,0,0,1-1.77,2.26,8.36,8.36,0,0,1-2.95,1.65,6.43,6.43,0,0,1-4-.13,4.81,4.81,0,0,1-2.77-1.88,4.9,4.9,0,0,1-.81-3,8.67,8.67,0,0,1,1.06-3.6,13.78,13.78,0,0,1,2.87-3.66,20.67,20.67,0,0,1,4.6-3.17,24.27,24.27,0,0,1,6.21-2.18,52.49,52.49,0,0,1,19.44-.56l-2.89,3.3a46.08,46.08,0,0,0-5.68,7.79q-2.44,4.19-4.57,8.25c-1.42,2.7-2.83,5.26-4.22,7.66a26.83,26.83,0,0,1-4.61,6c-1.63-.78-3-1.5-4.19-2.18a23.65,23.65,0,0,0-3.17-1.57,11.94,11.94,0,0,0-5-.82A7.42,7.42,0,0,0,152.86,52,4.74,4.74,0,0,0,151,54.26,4.16,4.16,0,0,0,150.9,57a5,5,0,0,0,1.91,2.46,8.42,8.42,0,0,0,4.06,1.39,16.6,16.6,0,0,0,6.75-.45,19,19,0,0,0,6.19-3.1,40.2,40.2,0,0,0,5.51,2,53.12,53.12,0,0,0,8,1.52,18.13,18.13,0,0,0,4.77,0,24.17,24.17,0,0,0,4.85-1.09,20.93,20.93,0,0,0,4.39-2,13.3,13.3,0,0,0,3.4-2.92,9.28,9.28,0,0,0,1.88-3.68A8.28,8.28,0,0,0,202.45,46.74Zm-39.16,12a13.92,13.92,0,0,1-5.15.73,5.39,5.39,0,0,1-2.69-.78A4,4,0,0,1,154,57a3.27,3.27,0,0,1-.25-2,2.93,2.93,0,0,1,1-1.7,3.89,3.89,0,0,1,2.16-.89,7.46,7.46,0,0,1,3.3.49,36.92,36.92,0,0,1,4,1.67c1.15.58,2.31,1.15,3.5,1.73A16.64,16.64,0,0,1,163.29,58.7ZM199,49.28a8.55,8.55,0,0,1-1.4,3.94,12.37,12.37,0,0,1-3.32,3.42,16.47,16.47,0,0,1-11,2.79,42.66,42.66,0,0,1-6.95-1.22,42.2,42.2,0,0,1-5.38-1.82c.34-.31.66-.6,1-.89s.63-.6,1-.94a47.32,47.32,0,0,0,5.07-6.73q2.53-4,5.08-8.35l5.1-8.73q2.56-4.37,5.1-7.86c.88.2,1.73.43,2.54.68a15.7,15.7,0,0,1,2.23.89A7.74,7.74,0,0,1,201.25,27a4.77,4.77,0,0,1,.87,2.92,6.17,6.17,0,0,1-1,3,10.7,10.7,0,0,1-2.29,2.61,12.59,12.59,0,0,1-3,1.88,8.07,8.07,0,0,1-3.25.73q-1.47,0-2.82-.12c-.89-.09-1.68-.14-2.36-.15a5.15,5.15,0,0,0-1.6.15.78.78,0,0,0-.58.84,2.11,2.11,0,0,0,1.14.76c.63.23,1.39.5,2.29.78l2.94.94a23.64,23.64,0,0,1,3.07,1.22,7.69,7.69,0,0,1,3.48,3A6.46,6.46,0,0,1,199,49.28Z"/>
    <path class="c" d="M342.41,48.82A.72.72,0,0,0,342,49a1.37,1.37,0,0,0-.38.53c-.3.68-.7,1.51-1.19,2.49a17.45,17.45,0,0,1-1.78,2.84,11.57,11.57,0,0,1-2.38,2.36,5,5,0,0,1-3,1,2,2,0,0,1-1.8-.83,4,4,0,0,1-.61-2,8.87,8.87,0,0,1,.15-2.28,9.53,9.53,0,0,1,.53-1.88,6.36,6.36,0,0,0,1.32-.18,15.79,15.79,0,0,0,1.73-.48,14.23,14.23,0,0,0,1.75-.71,9.25,9.25,0,0,0,1.45-.86,11.94,11.94,0,0,0,2.08-2,8.34,8.34,0,0,0,1.27-2.11,3.66,3.66,0,0,0,.27-1.9,2.12,2.12,0,0,0-.83-1.42,3.3,3.3,0,0,0-2-.61,5.93,5.93,0,0,0-2.26.48,10.14,10.14,0,0,0-2.33,1.4,14.1,14.1,0,0,0-2.13,2,16.63,16.63,0,0,0-1.58,2.18,20.31,20.31,0,0,0-1.24,2.41c-.07.17-.1.35-.17.52-.31.66-.62,1.32-1,2.07a21.08,21.08,0,0,1-1.78,2.76A11.15,11.15,0,0,1,324,57a3.62,3.62,0,0,1-2.21.84,2.59,2.59,0,0,1-1.75-.59,3.07,3.07,0,0,1-1-1.54,5.56,5.56,0,0,1-.1-2.26A8.1,8.1,0,0,1,320,50.7l3.65-7a45.29,45.29,0,0,0,4.75-4.24,60,60,0,0,0,4.31-4.9q2-2.54,3.71-5.13c1.13-1.72,2.14-3.35,3-4.87A11.42,11.42,0,0,0,341,20.65a3.17,3.17,0,0,0-.33-2.28,2,2,0,0,0-1.7-.79,5.74,5.74,0,0,0-2.54.64,11.92,11.92,0,0,0-2.81,2A13.93,13.93,0,0,0,331,23.39c-1.65,2.85-3.19,5.66-4.59,8.43s-2.7,5.5-3.88,8.17l-1.07,2a6.41,6.41,0,0,0-2.84-.91,7.89,7.89,0,0,0-2.92.35,10.51,10.51,0,0,0-2.77,1.37,12.71,12.71,0,0,0-2.38,2.14,21.56,21.56,0,0,0-2.49,3.88A1.45,1.45,0,0,0,308,49a.34.34,0,0,0-.06.06l-1.17,2.38a26,26,0,0,1-1.62,2.9,12.57,12.57,0,0,1-2,2.43,3.32,3.32,0,0,1-2.31,1,2.43,2.43,0,0,1-2.38-1.27,17.74,17.74,0,0,0,2.59-3,18,18,0,0,0,1.67-3,13.71,13.71,0,0,0,1-3.32,8.16,8.16,0,0,0,0-3,4.08,4.08,0,0,0-1.14-2.14,3.22,3.22,0,0,0-2.29-.81,5.53,5.53,0,0,0-2.69.64,11.73,11.73,0,0,0-2.66,1.85,16.58,16.58,0,0,0-2.41,2.74,19.13,19.13,0,0,0-1.57,2.68h0l-.05.09c-.08.18-.18.34-.26.52l0,.08c-.23.47-.49,1-.83,1.67A26.34,26.34,0,0,1,288,54.51a15.47,15.47,0,0,1-2,2.46,3,3,0,0,1-2,1,.92.92,0,0,1-.81-.48,3.48,3.48,0,0,1-.05-2.06,13.71,13.71,0,0,1,.48-1.57c.22-.61.48-1.26.79-1.95s.62-1.42,1-2.16.7-1.47,1.07-2.18c.84-1.66,1.78-3.41,2.79-5.23a3.08,3.08,0,0,0-1.83.2,17,17,0,0,0-2.59,1.14A26.18,26.18,0,0,0,282,45.4a23.72,23.72,0,0,0-2.26,1.75,25.16,25.16,0,0,0-2.31,2.31c-.76.86-1.4,1.61-1.9,2.26.61-1.25,1.26-2.48,1.95-3.68a34.92,34.92,0,0,0,1.75-3.43,1.79,1.79,0,0,0,.15-1.37,1.35,1.35,0,0,0-.91-.86,2.16,2.16,0,0,0-1.55.2,10.6,10.6,0,0,0-1.88,1.14c-.65.49-1.33,1.05-2,1.68l-1.95,1.75a25.16,25.16,0,0,0-2.31,2.31c-.76.86-1.39,1.61-1.9,2.26.44-.92.94-1.89,1.5-2.92s1.11-2,1.67-2.92,1.1-1.71,1.62-2.39A5.35,5.35,0,0,1,273,42.17a2.66,2.66,0,0,1-1.09,0,10.32,10.32,0,0,0-1-.18,2.48,2.48,0,0,0-1.93.66,11.3,11.3,0,0,0-1.68,2.54c-.72,1.34-1.35,2.69-2,4,0,.06-.07.09-.11.17-.68,1.39-1.44,2.79-2.31,4.22a11.84,11.84,0,0,1-3.07,3.45,3,3,0,0,1-1.32.58,1.66,1.66,0,0,1-1.22-.18,1.89,1.89,0,0,1-.76-1,3.7,3.7,0,0,1,.05-2c.14-.75.27-1.44.41-2.08s.26-1.15.38-1.73a9.36,9.36,0,0,1,.38-1.37,33.61,33.61,0,0,0,3.86-4.11,41.38,41.38,0,0,0,2.89-4.26h2.95a.33.33,0,0,0,.3-.18,1.07,1.07,0,0,0,.13-.38.8.8,0,0,0-.05-.38.28.28,0,0,0-.28-.18H265q1.11-2.13,2.18-4.37a10.12,10.12,0,0,0,1.27-4.74c-.1-1.14-.49-1.81-1.17-2a3,3,0,0,0-2.51.66A9.44,9.44,0,0,0,262,32.53c-.65,1.08-1.28,2.23-1.91,3.45s-1.23,2.47-1.8,3.76h-3a.4.4,0,0,0-.33.18.89.89,0,0,0-.15.38.57.57,0,0,0,.08.38.33.33,0,0,0,.3.18h2.64c-.4,1-.82,2-1.24,3.19s-.81,2.3-1.17,3.45c-.25.81-.46,1.58-.67,2.36-.37.74-.74,1.49-1.16,2.29a24.52,24.52,0,0,1-1.65,2.74,10.89,10.89,0,0,1-1.8,2.06,2.84,2.84,0,0,1-1.85.81,1.26,1.26,0,0,1-.94-.74,3.57,3.57,0,0,1,0-2.32,8.14,8.14,0,0,1,.45-1.6q.36-.95.84-2c.32-.73.66-1.47,1-2.24s.71-1.5,1.09-2.21.69-1.44,1-2a10.16,10.16,0,0,1,.79-1.33,6,6,0,0,1,.78-.91c.27-.26.6-.54,1-.84h-2.74a2.86,2.86,0,0,0-1.2.22,1.78,1.78,0,0,0-.78.84c-.48,1-1,2.12-1.6,3.3s-1.21,2.38-1.85,3.58-1.31,2.36-2,3.48a22.08,22.08,0,0,1-2.1,2.89,6.21,6.21,0,0,1-2.19,1.8,1.2,1.2,0,0,1-1.44-.15,2.42,2.42,0,0,1-.38-1.85,9.91,9.91,0,0,1,1-3.3c.24-.48.52-1.09.86-1.83s.7-1.47,1.07-2.18.79-1.66,1.27-2.54c.34-.71.64-1.29.91-1.73a8.45,8.45,0,0,1,.79-1.11,8.3,8.3,0,0,1,.73-.79,6.1,6.1,0,0,1,.82-.63h-3.1a2.81,2.81,0,0,0-1.19.22,1.8,1.8,0,0,0-.79.84q-.56,1.17-1.32,2.64l-1.52,2.94c-.17.31-.32.61-.46.92l0,.07a.27.27,0,0,0-.07.08c-.27.54-.66,1.3-1.17,2.26a31.73,31.73,0,0,1-1.7,2.87,16.84,16.84,0,0,1-1.9,2.43,2.43,2.43,0,0,1-1.78,1c-.74,0-.91-1-.5-3.05a14.83,14.83,0,0,1,.86-2.64c.4-1,.85-1.93,1.34-2.86s1-1.76,1.42-2.49a8.78,8.78,0,0,1,1.1-1.5,2.71,2.71,0,0,1-1.1,0,6.48,6.48,0,0,0-1-.18,2,2,0,0,0-1.9.76,16.86,16.86,0,0,0-1.55,2.49c-.67,1.25-1.38,2.48-2.1,3.68a31.82,31.82,0,0,1-2.41,3.42,8.52,8.52,0,0,1-1.83,1.65,3.1,3.1,0,0,1-1.6.59,1.22,1.22,0,0,1-1.07-.61,2.91,2.91,0,0,1-.17-1.93,7,7,0,0,1,.38-1.5,15.54,15.54,0,0,1,.61-1.52c.21-.49.43-.92.63-1.3s.35-.64.46-.81A27.43,27.43,0,0,1,225,45.7a15,15,0,0,1,3.56-3,3.67,3.67,0,0,1,2.66-.45A2.23,2.23,0,0,1,232.9,44a.74.74,0,0,0,.89-.4.94.94,0,0,0-.33-1.07,4.64,4.64,0,0,0-2.61-1.47,7.39,7.39,0,0,0-3.2.1,11.82,11.82,0,0,0-3.25,1.37,10.27,10.27,0,0,0-2.72,2.34,19.39,19.39,0,0,0-2.91,4.49,16.67,16.67,0,0,0-.84,2.26c-.48.92-1,1.82-1.55,2.69a16.88,16.88,0,0,1-1.83,2.38,2.52,2.52,0,0,1-1.7,1A.88.88,0,0,1,212,57a4.73,4.73,0,0,1,.13-1.81,16.36,16.36,0,0,1,.79-2.41c.35-.88.73-1.71,1.11-2.51l1.07-2.16.69-1.37.45-1c.17-.39.31-.76.43-1.12a6,6,0,0,0,.26-1,1.13,1.13,0,0,0-.08-.74c-1.25.14-2.49.22-3.73.26s-2.33,0-3.27,0a12.84,12.84,0,0,0,1.6-1.4,4.24,4.24,0,0,0,1.19-2,3.39,3.39,0,0,0-.13-2.11,2.23,2.23,0,0,0-1-1.14,1.2,1.2,0,0,0-1.2,0,1.91,1.91,0,0,0-.81,1.4c-.27,1.42-.63,2.94-1.09,4.57a49.75,49.75,0,0,1-1.67,4.9,50.16,50.16,0,0,1-2.26,4.82,32.93,32.93,0,0,1-2.79,4.34.53.53,0,0,0-.08.63q.18.28.48,0a14.55,14.55,0,0,0,1.83-2.31,32.8,32.8,0,0,0,1.73-3c.54-1.06,1-2.11,1.47-3.14s.81-2,1.11-2.77l.61-1.62a8.53,8.53,0,0,1,3.3.58,1.2,1.2,0,0,1,.61,1.8,12.56,12.56,0,0,1-.61,1.17l-.89,1.52c-.32.54-.62,1.1-.91,1.68s-.53,1.11-.74,1.62a8.06,8.06,0,0,0-.66,3.27,4,4,0,0,0,.66,2.06,2.53,2.53,0,0,0,1.35,1,2.91,2.91,0,0,0,1.45.08,5.44,5.44,0,0,0,2.33-1.35,13.76,13.76,0,0,0,2-2.41c.27-.4.48-.83.73-1.24a7.83,7.83,0,0,0,.16,2.66,3.62,3.62,0,0,0,1.24,2A2.56,2.56,0,0,0,221,59a5.82,5.82,0,0,0,2.71-1.68,17,17,0,0,0,2.09-2.41c.64-.9,1.16-1.68,1.57-2.36a10.36,10.36,0,0,0-.48,3.27,4.36,4.36,0,0,0,.53,2,2.35,2.35,0,0,0,1.17,1,2.93,2.93,0,0,0,1.32.23A4,4,0,0,0,232.17,58a14.28,14.28,0,0,0,2.15-2.52,29.94,29.94,0,0,0,1.62-2.66,8.41,8.41,0,0,0-.37.81,6.12,6.12,0,0,0-.38,1.5,4.63,4.63,0,0,0,.05,1.57,2.69,2.69,0,0,0,.53,1.17,3,3,0,0,0,.84.71,2.71,2.71,0,0,0,.94.33,5.75,5.75,0,0,0,.88.08,3.62,3.62,0,0,0,1.88-.59,8.83,8.83,0,0,0,1.85-1.52,17.52,17.52,0,0,0,1.68-2.08c.52-.76,1-1.53,1.45-2.31a8.71,8.71,0,0,0-.51,2.74,5.67,5.67,0,0,0,.33,2.06,2.58,2.58,0,0,0,1,1.26,2.71,2.71,0,0,0,1.52.44,4.21,4.21,0,0,0,2.59-.94,11.22,11.22,0,0,0,2.23-2.36,23.39,23.39,0,0,0,1.46-2.41c0,.17-.07.36-.09.53a5.32,5.32,0,0,0,.38,3.32A3.53,3.53,0,0,0,256,58.8a4.08,4.08,0,0,0,2.46.12,4.83,4.83,0,0,0,2.36-1.31c.26-.27.48-.52.71-.78-.4.82-.75,1.62-1.17,2.45a1.45,1.45,0,0,1,.76-.25c.24,0,.54,0,.92-.05a4.72,4.72,0,0,0,1.26-.13,1.15,1.15,0,0,0,.66-.69,46.31,46.31,0,0,1,3.94-6.44A24.31,24.31,0,0,1,271,48.27,13.7,13.7,0,0,1,273.76,46c.54-.26.82-.2.84.17a5.06,5.06,0,0,1-.48,1.78c-.34.81-.71,1.64-1.12,2.49l-1.27,2.76a11.44,11.44,0,0,0-.86,3,2.74,2.74,0,0,0,.28,2,1.48,1.48,0,0,0,1.34.84,10.79,10.79,0,0,1,1.09-2.67,36.1,36.1,0,0,1,1.91-3.1c.71-1,1.44-2,2.2-2.89a27.72,27.72,0,0,1,2-2.1A13.64,13.64,0,0,1,282,46.39a2.17,2.17,0,0,1,1.35-.41c.29.07.41.29.38.66a3.16,3.16,0,0,1-.51,1.32c-.71,1.15-1.3,2.16-1.77,3a11.54,11.54,0,0,0-1,2.31,8.08,8.08,0,0,0-.46,2.92,3.77,3.77,0,0,0,.59,1.83,2.51,2.51,0,0,0,1.19.94,4.43,4.43,0,0,0,1.42.25,4.25,4.25,0,0,0,2.72-1.07,13.22,13.22,0,0,0,2.36-2.56c.48-.68.88-1.4,1.29-2.12a7.89,7.89,0,0,0,.05,2.63,3.91,3.91,0,0,0,1.12,2.08,3.38,3.38,0,0,0,2.31.84,5.2,5.2,0,0,0,2.23-.42,10.07,10.07,0,0,0,2.18-1.26,4,4,0,0,0,1.3.92,4.64,4.64,0,0,0,1.95.37,4.45,4.45,0,0,0,2.92-1.15A12.93,12.93,0,0,0,306,54.81c.16-.23.28-.46.43-.69a6.85,6.85,0,0,0,.15,2.63,3,3,0,0,0,2.26,2.07,3.62,3.62,0,0,0,2.44-.12,6.54,6.54,0,0,0,2-1.4A12,12,0,0,0,315,55.24c.49-.76.92-1.44,1.29-2.05a6.67,6.67,0,0,0,.16,2.13,5,5,0,0,0,.86,1.88,4.62,4.62,0,0,0,1.62,1.32,5.64,5.64,0,0,0,5.61-.53A11.16,11.16,0,0,0,327,55.42a20.82,20.82,0,0,0,1.11-1.77c0,.25-.09.52-.09.76a4.55,4.55,0,0,0,1.5,3.63,5.16,5.16,0,0,0,3.37,1.19,6.93,6.93,0,0,0,3.63-.91A9.59,9.59,0,0,0,339.08,56,17.37,17.37,0,0,0,341,52.81l1.53-3.22a.81.81,0,0,0,.12-.59A.25.25,0,0,0,342.41,48.82Zm-9.34-.61a21,21,0,0,1,1.85-2.63,17,17,0,0,1,2.64-2.67,3.55,3.55,0,0,1,1.68-.81.69.69,0,0,1,.76.58,3.07,3.07,0,0,1-.1,1.53,7.73,7.73,0,0,1-.94,2,8.64,8.64,0,0,1-1.7,1.93,10.23,10.23,0,0,1-1.5,1,10.12,10.12,0,0,1-1.55.71,8.86,8.86,0,0,1-1.37.41,5.44,5.44,0,0,1-1,.13C332.11,49.87,332.51,49.16,333.07,48.21Zm-5.94-11.16c.93-1.79,1.92-3.65,3-5.56s2.11-3.75,3.17-5.51a47.25,47.25,0,0,1,2.82-4.21,6.68,6.68,0,0,1,2.13-2.08c.51-.2.85-.11,1,.28a3,3,0,0,1,0,1.7,7.59,7.59,0,0,1-.78,2.13c-.75,1.39-1.65,2.89-2.72,4.52s-2.2,3.23-3.4,4.82-2.45,3.11-3.73,4.57a35,35,0,0,1-3.76,3.7ZM263.2,35.6A20.28,20.28,0,0,1,265,32.33c.78-1.12,1.34-1.73,1.67-1.83s.54.06.59.48a5.09,5.09,0,0,1-.18,1.7,10.93,10.93,0,0,1-.61,1.88,50.62,50.62,0,0,1-2.54,5.18h-2.53Zm-3.83,8.91c.46-1.18,1-2.4,1.5-3.65h2.38c-.74,1.21-1.54,2.4-2.38,3.55a28.3,28.3,0,0,1-2.74,3.2C258.5,46.73,258.91,45.69,259.37,44.51Zm37.15,8.07a3.54,3.54,0,0,0-.43,1.52,4,4,0,0,0,.21,1.22,4.49,4.49,0,0,0,.61,1.27,6.69,6.69,0,0,1-1.83,1.12,2.63,2.63,0,0,1-1.63.15,1.39,1.39,0,0,1-1-.94,4.44,4.44,0,0,1-.15-1.85,11.87,11.87,0,0,1,.53-2.52,22,22,0,0,1,1.19-3,18.39,18.39,0,0,1,1.63-2.82,15.32,15.32,0,0,1,1.88-2.23,6.78,6.78,0,0,1,1.92-1.38,2.72,2.72,0,0,1,1.78-.22,1.5,1.5,0,0,1,1,.94,4.43,4.43,0,0,1,.25,1.85,11.73,11.73,0,0,1-.46,2.54,18.73,18.73,0,0,1-1.17,3A20.17,20.17,0,0,1,299.29,54c0-.1.06-.19.08-.28a2.3,2.3,0,0,0,0-.28,1.48,1.48,0,0,0-.43-1.06,1.42,1.42,0,0,0-1.09-.46A1.44,1.44,0,0,0,296.52,52.58Zm21-3.43q-1.8,3.08-3.23,5.05a9.25,9.25,0,0,1-2.91,2.95c-.87.44-1.52.46-2,.05a2.77,2.77,0,0,1-.53-2.29,10.9,10.9,0,0,1,1.39-4.06,27,27,0,0,1,2.47-3.73,20.52,20.52,0,0,1,3-3.14,8.58,8.58,0,0,1,3-1.73,2.28,2.28,0,0,1,2.39.48Q319.28,46.09,317.49,49.15Z"/>
  </g>
</svg>
