<svg xmlns="http://www.w3.org/2000/svg" width="19" height="36" viewBox="0 0 19 36">
  <defs>
    <style>
      .a {
        fill: #fff;
      }
    </style>
  </defs>
  <title>Безымянный-3</title>
  <path class="a" d="M2.82.54A2.36,2.36,0,0,0,.45,2.91V33a2.36,2.36,0,0,0,2.37,2.38H16.26A2.37,2.37,0,0,0,18.64,33v-30A2.37,2.37,0,0,0,16.26.54ZM7.17,2.12h4.74a.4.4,0,1,1,0,.79H7.17a.4.4,0,1,1,0-.79ZM2.84,4.49h13.4V29.8H2.84ZM9.54,31A1.58,1.58,0,1,1,8,32.57,1.58,1.58,0,0,1,9.54,31Z"/>
</svg>
